
/* CLOCKS */

DECLARE_clk_mux(clk_MIF_MUX_BUS_PLL)
DECLARE_clk_mux(clk_MIF_MUX_MEDIA_PLL)
DECLARE_clk_mux(clk_G3D_MUX_G3D_PLL)
DECLARE_clk_mux(clk_FSYS_MUX_USB_PLL)
DECLARE_clk_mux(clk_DISPAUD_MUX_DISP_PLL)
DECLARE_clk_mux(clk_DISPAUD_MUX_AUD_PLL)
DECLARE_clk_mux(clk_ISP_MUX_ISP_PLL)
DECLARE_clk_mux(clk_MIF_MUX_MEM_PLL)
DEFINE_clk_fixed_rate(clk_OSCCLK, CLK_NULL, 26000000, CLK_NULL)
DEFINE_clk_pll_141xx(clk_BUS_PLL, (0x10460140, 0, 0), (0x10460040, 0, 0), 14170, 1, &clk_MIF_MUX_BUS_PLL, {{1599000000, 4, 246, 0, 0}})
DEFINE_clk_mux(clk_MIF_MUX_BUS_PLL, (&clk_OSCCLK, &clk_BUS_PLL), (0x10460208, 12, 1), (0x10460608, 12, 2), (0x10460208, 21, 0), CLK_NULL)
DEFINE_clk_fixed_div(clk_MIF_FF_MUX_BUS_PLL_DIV2, &clk_MIF_MUX_BUS_PLL, 2, CLK_NULL)
DEFINE_clk_pll_141xx(clk_MEDIA_PLL, (0x10460120, 0, 0), (0x10460020, 0, 0), 14170, 1, &clk_MIF_MUX_MEDIA_PLL, {{1332500000, 4, 205, 0, 0}})
DEFINE_clk_mux(clk_MIF_MUX_MEDIA_PLL, (&clk_OSCCLK, &clk_MEDIA_PLL), (0x10460204, 12, 1), (0x10460604, 12, 2), (0x10460204, 21, 0), CLK_NULL)
DEFINE_clk_fixed_div(clk_MIF_FF_MUX_MEDIA_PLL_DIV2, &clk_MIF_MUX_MEDIA_PLL, 2, CLK_NULL)
DEFINE_clk_gate(clk_MIF_MUXGATE_CLKCMU_MFCMSCL_MSCL, CLK_NULL, (0x1046027c, 21, 0))
DEFINE_clk_mux(clk_MIF_MUX_CLKCMU_MFCMSCL_MSCL, (&clk_MIF_FF_MUX_BUS_PLL_DIV2, &clk_MIF_FF_MUX_MEDIA_PLL_DIV2, &clk_MIF_MUX_BUS_PLL), (0x1046027c, 12, 2), (0x1046067c, 12, 4), (0x1046027c, 21, 0), &clk_MIF_MUXGATE_CLKCMU_MFCMSCL_MSCL)
DEFINE_clk_div(clk_MIF_DIV_CLKCMU_MFCMSCL_MSCL, &clk_MIF_MUX_CLKCMU_MFCMSCL_MSCL, (0x1046047c, 0, 4), (0x1046047c, 25, 1), &clk_MIF_MUXGATE_CLKCMU_MFCMSCL_MSCL)
DEFINE_clk_gate(clk_MIF_GATE_CLKCMU_MFCMSCL_MSCL, &clk_MIF_DIV_CLKCMU_MFCMSCL_MSCL, (0x1046087c, 0, 0))
DEFINE_clk_mux(clk_MFCMSCL_MUX_CLKCMU_MFCMSCL_MSCL_USER, (&clk_OSCCLK, &clk_MIF_GATE_CLKCMU_MFCMSCL_MSCL), (0x12cb0200, 12, 1), (0x12cb0600, 12, 2), (0x12cb0200, 21, 0), CLK_NULL)
DEFINE_clk_gate(clk_MIF_MUXGATE_CLKCMU_MFCMSCL_MFC, CLK_NULL, (0x10460280, 21, 0))
DEFINE_clk_mux(clk_MIF_MUX_CLKCMU_MFCMSCL_MFC, (&clk_MIF_FF_MUX_BUS_PLL_DIV2, &clk_MIF_FF_MUX_MEDIA_PLL_DIV2, &clk_MIF_MUX_BUS_PLL), (0x10460280, 12, 2), (0x10460680, 12, 4), (0x10460280, 21, 0), &clk_MIF_MUXGATE_CLKCMU_MFCMSCL_MFC)
DEFINE_clk_div(clk_MIF_DIV_CLKCMU_MFCMSCL_MFC, &clk_MIF_MUX_CLKCMU_MFCMSCL_MFC, (0x10460480, 0, 4), (0x10460480, 25, 1), &clk_MIF_MUXGATE_CLKCMU_MFCMSCL_MFC)
DEFINE_clk_gate(clk_MIF_GATE_CLKCMU_MFCMSCL_MFC, &clk_MIF_DIV_CLKCMU_MFCMSCL_MFC, (0x10460880, 0, 0))
DEFINE_clk_mux(clk_MFCMSCL_MUX_CLKCMU_MFCMSCL_MFC_USER, (&clk_OSCCLK, &clk_MIF_GATE_CLKCMU_MFCMSCL_MFC), (0x12cb0204, 12, 1), (0x12cb0604, 12, 2), (0x12cb0204, 21, 0), CLK_NULL)
DEFINE_clk_div(clk_MFCMSCL_DIV_CLK_MFCMSCL_APB, &clk_MFCMSCL_MUX_CLKCMU_MFCMSCL_MSCL_USER, (0x12cb0400, 0, 2), (0x12cb0400, 25, 1), CLK_NULL)
DEFINE_clk_gate(clk_MFCMSCL_GATE_CLK_MFCMSCL_UID_CLKCMU_MFCMSCL_MSCL_PPMU, &clk_MFCMSCL_MUX_CLKCMU_MFCMSCL_MSCL_USER, (0x12cb0804, 5, 0))
DEFINE_clk_gate(clk_MFCMSCL_GATE_CLK_MFCMSCL_UID_CLKCMU_MFCMSCL_MSCL, &clk_MFCMSCL_MUX_CLKCMU_MFCMSCL_MSCL_USER, (0x12cb0804, 0, 0))
DEFINE_clk_gate(clk_MFCMSCL_GATE_CLK_MFCMSCL_UID_CLKCMU_MFCMSCL_MSCL_D, &clk_MFCMSCL_MUX_CLKCMU_MFCMSCL_MSCL_USER, (0x12cb0804, 1, 0))
DEFINE_clk_gate(clk_MFCMSCL_GATE_CLK_MFCMSCL_UID_CLKCMU_MFCMSCL_MFC, &clk_MFCMSCL_MUX_CLKCMU_MFCMSCL_MFC_USER, (0x12cb0808, 0, 0))
DEFINE_clk_gate(clk_MFCMSCL_GATE_CLK_MFCMSCL_UID_CLKCMU_MFCMSCL_MSCL_BI, &clk_MFCMSCL_MUX_CLKCMU_MFCMSCL_MSCL_USER, (0x12cb0804, 4, 0))
DEFINE_clk_gate(clk_MFCMSCL_GATE_CLK_MFCMSCL_UID_CLKCMU_MFCMSCL_MSCL_POLY, &clk_MFCMSCL_MUX_CLKCMU_MFCMSCL_MSCL_USER, (0x12cb0804, 3, 0))
DEFINE_clk_gate(clk_MFCMSCL_GATE_CLK_MFCMSCL_UID_CLKCMU_MFCMSCL_MSCL_JPEG, &clk_MFCMSCL_MUX_CLKCMU_MFCMSCL_MSCL_USER, (0x12cb0804, 2, 0))
DEFINE_clk_pll_141xx(clk_G3D_PLL, (0x11460100, 0, 0), (0x11460000, 0, 0), 14180, 10, &clk_G3D_MUX_G3D_PLL, {{1001000000, 4, 154, 0, 0}, {845000000, 4, 130, 0, 0}, {728000000, 4, 112, 0, 0}, {676000000, 4, 104, 0, 0}, {545000000, 13, 545, 1, 0}, {450000000, 13, 450, 1, 0}, {343000000, 13, 343, 1, 0}, {1300000000, 13, 650, 0, 0}, {1146000000, 13, 573, 0, 0}, {1246000000, 13, 623, 0, 0}})
DEFINE_clk_mux(clk_G3D_MUX_G3D_PLL, (&clk_OSCCLK, &clk_G3D_PLL), (0x11460200, 12, 1), (0x11460600, 12, 2), (0x11460200, 21, 0), CLK_NULL)
DEFINE_clk_div(clk_MIF_DIV_CLKCMU_G3D_SWITCH, &clk_MIF_FF_MUX_BUS_PLL_DIV2, (0x10460460, 0, 2), (0x10460460, 25, 1), CLK_NULL)
DEFINE_clk_gate(clk_MIF_GATE_CLKCMU_G3D_SWITCH, &clk_MIF_DIV_CLKCMU_G3D_SWITCH, (0x10460860, 0, 0))
DEFINE_clk_mux(clk_G3D_MUX_CLKCMU_G3D_SWITCH_USER, (&clk_OSCCLK, &clk_MIF_GATE_CLKCMU_G3D_SWITCH), (0x11460204, 12, 1), (0x11460604, 12, 2), (0x11460204, 21, 0), CLK_NULL)
DEFINE_clk_mux(clk_G3D_MUX_CLK_G3D, (&clk_G3D_MUX_G3D_PLL, &clk_G3D_MUX_CLKCMU_G3D_SWITCH_USER), (0x11460208, 12, 1), (0x11460608, 12, 2), (0x11460208, 21, 0), CLK_NULL)
DEFINE_clk_div(clk_G3D_DIV_CLK_G3D_BUS, &clk_G3D_MUX_CLK_G3D, (0x11460400, 0, 3), (0x11460400, 25, 1), CLK_NULL)
DEFINE_clk_gate(clk_G3D_GATE_CLK_G3D_UID_PPMU_G3D_IPCLKPORT_ACLK, &clk_G3D_DIV_CLK_G3D_BUS, (0x11460804, 7, 0))
DEFINE_clk_div(clk_G3D_DIV_CLK_G3D_APB, &clk_G3D_DIV_CLK_G3D_BUS, (0x11460404, 0, 3), (0x11460404, 25, 1), CLK_NULL)
DEFINE_clk_gate(clk_G3D_GATE_CLK_G3D_UID_PPMU_G3D_IPCLKPORT_PCLK, &clk_G3D_DIV_CLK_G3D_APB, (0x11460808, 4, 0))
DEFINE_clk_gate(clk_G3D_GATE_CLK_G3D_UID_QE_G3D_IPCLKPORT_ACLK, &clk_G3D_DIV_CLK_G3D_BUS, (0x11460804, 8, 0))
DEFINE_clk_gate(clk_G3D_GATE_CLK_G3D_UID_QE_G3D_IPCLKPORT_PCLK, &clk_G3D_DIV_CLK_G3D_APB, (0x11460808, 5, 0))
DEFINE_clk_gate(clk_G3D_GATE_CLK_G3D_UID_G3D_IPCLKPORT_CLK, &clk_G3D_DIV_CLK_G3D_BUS, (0x11460804, 6, 0))
DEFINE_clk_gate(clk_G3D_GATE_CLK_G3D_UID_ASYNCS_D0_G3D_IPCLKPORT_I_CLK, &clk_G3D_DIV_CLK_G3D_BUS, (0x11460804, 1, 0))
DEFINE_clk_gate(clk_G3D_GATE_CLK_G3D_UID_ASYNC_G3D_P_IPCLKPORT_PCLKM, &clk_G3D_DIV_CLK_G3D_BUS, (0x11460804, 0, 0))
DEFINE_clk_gate(clk_G3D_GATE_CLK_G3D_UID_SYSREG_G3D_IPCLKPORT_PCLK, &clk_G3D_DIV_CLK_G3D_APB, (0x11460808, 6, 0))
DEFINE_clk_mux(clk_MIF_MUX_CLKCMU_PERI_BUS, (&clk_MIF_FF_MUX_BUS_PLL_DIV2, &clk_MIF_FF_MUX_MEDIA_PLL_DIV2), (0x104602a0, 12, 1), (0x104606a0, 12, 2), (0x104602a0, 21, 0), CLK_NULL)
DEFINE_clk_div(clk_MIF_DIV_CLKCMU_PERI_BUS, &clk_MIF_MUX_CLKCMU_PERI_BUS, (0x104604a0, 0, 4), (0x104604a0, 25, 1), CLK_NULL)
DEFINE_clk_gate(clk_MIF_GATE_CLKCMU_PERI_BUS, &clk_MIF_DIV_CLKCMU_PERI_BUS, (0x104608a0, 0, 0))
DEFINE_clk_gate(clk_PERI_GATE_CLK_PERI_UID_PWM_MOTOR_IPCLKPORT_i_PCLK_S0, &clk_MIF_GATE_CLKCMU_PERI_BUS, (0x101f0810, 29, 0))
DEFINE_clk_gate(clk_PERI_GATE_CLK_PERI_UID_PWM_MOTOR_IPCLKPORT_i_OSCCLK, &clk_OSCCLK, (0x101f0800, 2, 0))
DEFINE_clk_gate(clk_PERI_GATE_CLK_PERI_UID_MCT_IPCLKPORT_PCLK, &clk_MIF_GATE_CLKCMU_PERI_BUS, (0x101f0810, 26, 0))
DEFINE_clk_gate(clk_PERI_GATE_CLK_PERI_UID_BUSP1_PERIC0_IPCLKPORT_HCLK, &clk_MIF_GATE_CLKCMU_PERI_BUS, (0x101f0810, 3, 0))
DEFINE_clk_gate(clk_PERI_GATE_CLK_PERI_UID_I2C_SENSOR1_IPCLKPORT_PCLK, &clk_MIF_GATE_CLKCMU_PERI_BUS, (0x101f0810, 24, 0))
DEFINE_clk_gate(clk_PERI_GATE_CLK_PERI_UID_I2C_SENSOR2_IPCLKPORT_PCLK, &clk_MIF_GATE_CLKCMU_PERI_BUS, (0x101f0810, 25, 0))
DEFINE_clk_gate(clk_PERI_GATE_CLK_PERI_UID_I2C_TSP_IPCLKPORT_PCLK, &clk_MIF_GATE_CLKCMU_PERI_BUS, (0x101f0810, 23, 0))
DEFINE_clk_gate(clk_PERI_GATE_CLK_PERI_UID_I2C_TOUCHKEY_IPCLKPORT_PCLK, &clk_MIF_GATE_CLKCMU_PERI_BUS, (0x101f0810, 22, 0))
DEFINE_clk_gate(clk_PERI_GATE_CLK_PERI_UID_I2C_FUELGAUGE_IPCLKPORT_PCLK, &clk_MIF_GATE_CLKCMU_PERI_BUS, (0x101f0810, 21, 0))
DEFINE_clk_gate(clk_PERI_GATE_CLK_PERI_UID_I2C_SPKAMP_IPCLKPORT_PCLK, &clk_MIF_GATE_CLKCMU_PERI_BUS, (0x101f0810, 20, 0))
DEFINE_clk_gate(clk_PERI_GATE_CLK_PERI_UID_I2C_NFC_IPCLKPORT_PCLK, &clk_MIF_GATE_CLKCMU_PERI_BUS, (0x101f0810, 19, 0))
DEFINE_clk_gate(clk_PERI_GATE_CLK_PERI_UID_I2C_MUIC_IPCLKPORT_PCLK, &clk_MIF_GATE_CLKCMU_PERI_BUS, (0x101f0810, 18, 0))
DEFINE_clk_gate(clk_PERI_GATE_CLK_PERI_UID_I2C_IFPMIC_IPCLKPORT_PCLK, &clk_MIF_GATE_CLKCMU_PERI_BUS, (0x101f0810, 17, 0))
DEFINE_clk_gate(clk_PERI_GATE_CLK_PERI_UID_HSI2C_FRONTCAM_IPCLKPORT_iPCLK, &clk_MIF_GATE_CLKCMU_PERI_BUS, (0x101f0810, 16, 0))
DEFINE_clk_gate(clk_PERI_GATE_CLK_PERI_UID_HSI2C_MAINCAM_IPCLKPORT_iPCLK, &clk_MIF_GATE_CLKCMU_PERI_BUS, (0x101f0810, 15, 0))
DEFINE_clk_gate(clk_PERI_GATE_CLK_PERI_UID_HSI2C_DEPTHCAM_IPCLKPORT_iPCLK, &clk_MIF_GATE_CLKCMU_PERI_BUS, (0x101f0810, 14, 0))
DEFINE_clk_gate(clk_PERI_GATE_CLK_PERI_UID_HSI2C_FRONTSENSOR_IPCLKPORT_iPCLK, &clk_MIF_GATE_CLKCMU_PERI_BUS, (0x101f0810, 13, 0))
DEFINE_clk_gate(clk_PERI_GATE_CLK_PERI_UID_HSI2C_REARAF_IPCLKPORT_iPCLK, &clk_MIF_GATE_CLKCMU_PERI_BUS, (0x101f0810, 12, 0))
DEFINE_clk_gate(clk_PERI_GATE_CLK_PERI_UID_HSI2C_REARSENSOR_IPCLKPORT_iPCLK, &clk_MIF_GATE_CLKCMU_PERI_BUS, (0x101f0810, 11, 0))
DEFINE_clk_gate(clk_PERI_GATE_CLK_PERI_UID_GPIO_TOUCH_IPCLKPORT_PCLK, &clk_MIF_GATE_CLKCMU_PERI_BUS, (0x101f0810, 10, 0))
DEFINE_clk_gate(clk_PERI_GATE_CLK_PERI_UID_GPIO_TOP_IPCLKPORT_PCLK, &clk_MIF_GATE_CLKCMU_PERI_BUS, (0x101f0810, 9, 0))
DEFINE_clk_gate(clk_PERI_GATE_CLK_PERI_UID_GPIO_NFC_IPCLKPORT_PCLK, &clk_MIF_GATE_CLKCMU_PERI_BUS, (0x101f0810, 8, 0))
DEFINE_clk_gate(clk_PERI_GATE_CLK_PERI_UID_GPIO_ESE_IPCLKPORT_PCLK, &clk_MIF_GATE_CLKCMU_PERI_BUS, (0x101f0810, 7, 0))
DEFINE_clk_gate(clk_PERI_GATE_CLK_PERI_UID_WDT_CPUCL0_IPCLKPORT_PCLK, &clk_MIF_GATE_CLKCMU_PERI_BUS, (0x101f0814, 13, 0))
DEFINE_clk_gate(clk_PERI_GATE_CLK_PERI_UID_WDT_CPUCL1_IPCLKPORT_PCLK, &clk_MIF_GATE_CLKCMU_PERI_BUS, (0x101f0814, 14, 0))
DEFINE_clk_gate(clk_MIF_MUXGATE_CLKCMU_PERI_UART_DEBUG, CLK_NULL, (0x104602a8, 21, 0))
DEFINE_clk_mux(clk_MIF_MUX_CLKCMU_PERI_UART_DEBUG, (&clk_MIF_FF_MUX_BUS_PLL_DIV2, &clk_MIF_FF_MUX_MEDIA_PLL_DIV2), (0x104602a8, 12, 1), (0x104606a8, 12, 2), (0x104602a8, 21, 0), &clk_MIF_MUXGATE_CLKCMU_PERI_UART_DEBUG)
DEFINE_clk_div(clk_MIF_DIV_CLKCMU_PERI_UART_DEBUG, &clk_MIF_MUX_CLKCMU_PERI_UART_DEBUG, (0x104604a8, 0, 4), (0x104604a8, 25, 1), &clk_MIF_MUXGATE_CLKCMU_PERI_UART_DEBUG)
DEFINE_clk_gate(clk_MIF_GATE_CLKCMU_PERI_UART_DEBUG, &clk_MIF_DIV_CLKCMU_PERI_UART_DEBUG, (0x104608a8, 0, 0))
DEFINE_clk_gate(clk_PERI_GATE_CLK_PERI_UID_UART_DEBUG_IPCLKPORT_PCLK, &clk_MIF_GATE_CLKCMU_PERI_BUS, (0x101f0814, 12, 0))
DEFINE_clk_gate(clk_PERI_GATE_CLK_PERI_UID_UART_DEBUG_IPCLKPORT_EXT_UCLK, &clk_MIF_GATE_CLKCMU_PERI_UART_DEBUG, (0x101f0834, 0, 0))
DEFINE_clk_gate(clk_MIF_MUXGATE_CLKCMU_PERI_UART_BTWIFIFM, CLK_NULL, (0x104602a4, 21, 0))
DEFINE_clk_mux(clk_MIF_MUX_CLKCMU_PERI_UART_BTWIFIFM, (&clk_MIF_FF_MUX_BUS_PLL_DIV2, &clk_MIF_FF_MUX_MEDIA_PLL_DIV2), (0x104602a4, 12, 1), (0x104606a4, 12, 2), (0x104602a4, 21, 0), &clk_MIF_MUXGATE_CLKCMU_PERI_UART_BTWIFIFM)
DEFINE_clk_div(clk_MIF_DIV_CLKCMU_PERI_UART_BTWIFIFM, &clk_MIF_MUX_CLKCMU_PERI_UART_BTWIFIFM, (0x104604a4, 0, 4), (0x104604a4, 25, 1), &clk_MIF_MUXGATE_CLKCMU_PERI_UART_BTWIFIFM)
DEFINE_clk_gate(clk_MIF_GATE_CLKCMU_PERI_UART_BTWIFIFM, &clk_MIF_DIV_CLKCMU_PERI_UART_BTWIFIFM, (0x104608a4, 0, 0))
DEFINE_clk_gate(clk_PERI_GATE_CLK_PERI_UID_UART_BTWIFIFM_IPCLKPORT_PCLK, &clk_MIF_GATE_CLKCMU_PERI_BUS, (0x101f0814, 11, 0))
DEFINE_clk_gate(clk_PERI_GATE_CLK_PERI_UID_UART_BTWIFIFM_IPCLKPORT_EXT_UCLK, &clk_MIF_GATE_CLKCMU_PERI_UART_BTWIFIFM, (0x101f0830, 0, 0))
DEFINE_clk_gate(clk_MIF_MUXGATE_CLKCMU_PERI_UART_SENSOR, CLK_NULL, (0x104602ac, 21, 0))
DEFINE_clk_mux(clk_MIF_MUX_CLKCMU_PERI_UART_SENSOR, (&clk_MIF_FF_MUX_BUS_PLL_DIV2, &clk_MIF_FF_MUX_MEDIA_PLL_DIV2), (0x104602ac, 12, 1), (0x104606ac, 12, 2), (0x104602ac, 21, 0), &clk_MIF_MUXGATE_CLKCMU_PERI_UART_SENSOR)
DEFINE_clk_div(clk_MIF_DIV_CLKCMU_PERI_UART_SENSOR, &clk_MIF_MUX_CLKCMU_PERI_UART_SENSOR, (0x104604ac, 0, 4), (0x104604ac, 25, 1), &clk_MIF_MUXGATE_CLKCMU_PERI_UART_SENSOR)
DEFINE_clk_gate(clk_MIF_GATE_CLKCMU_PERI_UART_SENSOR, &clk_MIF_DIV_CLKCMU_PERI_UART_SENSOR, (0x104608ac, 0, 0))
DEFINE_clk_gate(clk_PERI_GATE_CLK_PERI_UID_UART_SENSOR_IPCLKPORT_PCLK, &clk_MIF_GATE_CLKCMU_PERI_BUS, (0x101f0814, 10, 0))
DEFINE_clk_gate(clk_PERI_GATE_CLK_PERI_UID_UART_SENSOR_IPCLKPORT_EXT_UCLK, &clk_MIF_GATE_CLKCMU_PERI_UART_SENSOR, (0x101f0838, 0, 0))
DEFINE_clk_gate(clk_PERI_GATE_CLK_PERI_UID_SFRIF_TMU_G3D_IPCLKPORT_PCLK, &clk_MIF_GATE_CLKCMU_PERI_BUS, (0x101f0814, 3, 0))
DEFINE_clk_gate(clk_PERI_GATE_CLK_PERI_UID_TMU_G3D_IPCLKPORT_I_CLK, &clk_OSCCLK, (0x101f0800, 6, 0))
DEFINE_clk_gate(clk_PERI_GATE_CLK_PERI_UID_SFRIF_TMU_CPUCL1_IPCLKPORT_PCLK, &clk_MIF_GATE_CLKCMU_PERI_BUS, (0x101f0814, 2, 0))
DEFINE_clk_gate(clk_PERI_GATE_CLK_PERI_UID_TMU_CPUCL1_IPCLKPORT_I_CLK, &clk_OSCCLK, (0x101f0800, 5, 0))
DEFINE_clk_gate(clk_PERI_GATE_CLK_PERI_UID_SFRIF_TMU_CPUCL0_IPCLKPORT_PCLK, &clk_MIF_GATE_CLKCMU_PERI_BUS, (0x101f0814, 1, 0))
DEFINE_clk_gate(clk_PERI_GATE_CLK_PERI_UID_TMU_CPUCL0_IPCLKPORT_I_CLK, &clk_OSCCLK, (0x101f0800, 4, 0))
DEFINE_clk_gate(clk_MIF_MUXGATE_CLKCMU_PERI_SPI_SENSORHUB, CLK_NULL, (0x104602c0, 21, 0))
DEFINE_clk_mux(clk_MIF_MUX_CLKCMU_PERI_SPI_SENSORHUB, (&clk_MIF_FF_MUX_BUS_PLL_DIV2, &clk_OSCCLK), (0x104602c0, 12, 1), (0x104606c0, 12, 2), (0x104602c0, 21, 0), &clk_MIF_MUXGATE_CLKCMU_PERI_SPI_SENSORHUB)
DEFINE_clk_div(clk_MIF_DIV_CLKCMU_PERI_SPI_SENSORHUB, &clk_MIF_MUX_CLKCMU_PERI_SPI_SENSORHUB, (0x104604c0, 0, 6), (0x104604c0, 25, 1), &clk_MIF_MUXGATE_CLKCMU_PERI_SPI_SENSORHUB)
DEFINE_clk_gate(clk_MIF_GATE_CLKCMU_PERI_SPI_SENSORHUB, &clk_MIF_DIV_CLKCMU_PERI_SPI_SENSORHUB, (0x104608c0, 0, 0))
DEFINE_clk_gate(clk_PERI_GATE_CLK_PERI_UID_SPI_SENSORHUB_IPCLKPORT_PCLK, &clk_MIF_GATE_CLKCMU_PERI_BUS, (0x101f0814, 8, 0))
DEFINE_clk_gate(clk_PERI_GATE_CLK_PERI_UID_SPI_SENSORHUB_IPCLKPORT_SPI_EXT_CLK, &clk_MIF_GATE_CLKCMU_PERI_SPI_SENSORHUB, (0x101f084c, 0, 0))
DEFINE_clk_gate(clk_MIF_MUXGATE_CLKCMU_PERI_SPI_VOICEPROCESSOR, CLK_NULL, (0x104602bc, 21, 0))
DEFINE_clk_mux(clk_MIF_MUX_CLKCMU_PERI_SPI_VOICEPROCESSOR, (&clk_MIF_FF_MUX_BUS_PLL_DIV2, &clk_OSCCLK), (0x104602bc, 12, 1), (0x104606bc, 12, 2), (0x104602bc, 21, 0), &clk_MIF_MUXGATE_CLKCMU_PERI_SPI_VOICEPROCESSOR)
DEFINE_clk_div(clk_MIF_DIV_CLKCMU_PERI_SPI_VOICEPROCESSOR, &clk_MIF_MUX_CLKCMU_PERI_SPI_VOICEPROCESSOR, (0x104604bc, 0, 6), (0x104604bc, 25, 1), &clk_MIF_MUXGATE_CLKCMU_PERI_SPI_VOICEPROCESSOR)
DEFINE_clk_gate(clk_MIF_GATE_CLKCMU_PERI_SPI_VOICEPROCESSOR, &clk_MIF_DIV_CLKCMU_PERI_SPI_VOICEPROCESSOR, (0x104608bc, 0, 0))
DEFINE_clk_gate(clk_PERI_GATE_CLK_PERI_UID_SPI_VOICEPROCESSOR_IPCLKPORT_PCLK, &clk_MIF_GATE_CLKCMU_PERI_BUS, (0x101f0814, 7, 0))
DEFINE_clk_gate(clk_PERI_GATE_CLK_PERI_UID_SPI_VOICEPROCESSOR_IPCLKPORT_SPI_EXT_CLK, &clk_MIF_GATE_CLKCMU_PERI_SPI_VOICEPROCESSOR, (0x101f0848, 0, 0))
DEFINE_clk_gate(clk_MIF_MUXGATE_CLKCMU_PERI_SPI_ESE, CLK_NULL, (0x104602b8, 21, 0))
DEFINE_clk_mux(clk_MIF_MUX_CLKCMU_PERI_SPI_ESE, (&clk_MIF_FF_MUX_BUS_PLL_DIV2, &clk_OSCCLK), (0x104602b8, 12, 1), (0x104606b8, 12, 2), (0x104602b8, 21, 0), &clk_MIF_MUXGATE_CLKCMU_PERI_SPI_ESE)
DEFINE_clk_div(clk_MIF_DIV_CLKCMU_PERI_SPI_ESE, &clk_MIF_MUX_CLKCMU_PERI_SPI_ESE, (0x104604b8, 0, 6), (0x104604b8, 25, 1), &clk_MIF_MUXGATE_CLKCMU_PERI_SPI_ESE)
DEFINE_clk_gate(clk_MIF_GATE_CLKCMU_PERI_SPI_ESE, &clk_MIF_DIV_CLKCMU_PERI_SPI_ESE, (0x104608b8, 0, 0))
DEFINE_clk_gate(clk_PERI_GATE_CLK_PERI_UID_SPI_ESE_IPCLKPORT_PCLK, &clk_MIF_GATE_CLKCMU_PERI_BUS, (0x101f0814, 6, 0))
DEFINE_clk_gate(clk_PERI_GATE_CLK_PERI_UID_SPI_ESE_IPCLKPORT_SPI_EXT_CLK, &clk_MIF_GATE_CLKCMU_PERI_SPI_ESE, (0x101f0844, 0, 0))
DEFINE_clk_gate(clk_MIF_MUXGATE_CLKCMU_PERI_SPI_REARFROM, CLK_NULL, (0x104602b4, 21, 0))
DEFINE_clk_mux(clk_MIF_MUX_CLKCMU_PERI_SPI_REARFROM, (&clk_MIF_FF_MUX_BUS_PLL_DIV2, &clk_OSCCLK), (0x104602b4, 12, 1), (0x104606b4, 12, 2), (0x104602b4, 21, 0), &clk_MIF_MUXGATE_CLKCMU_PERI_SPI_REARFROM)
DEFINE_clk_div(clk_MIF_DIV_CLKCMU_PERI_SPI_REARFROM, &clk_MIF_MUX_CLKCMU_PERI_SPI_REARFROM, (0x104604b4, 0, 6), (0x104604b4, 25, 1), &clk_MIF_MUXGATE_CLKCMU_PERI_SPI_REARFROM)
DEFINE_clk_gate(clk_MIF_GATE_CLKCMU_PERI_SPI_REARFROM, &clk_MIF_DIV_CLKCMU_PERI_SPI_REARFROM, (0x104608b4, 0, 0))
DEFINE_clk_gate(clk_PERI_GATE_CLK_PERI_UID_SPI_REARFROM_IPCLKPORT_PCLK, &clk_MIF_GATE_CLKCMU_PERI_BUS, (0x101f0814, 5, 0))
DEFINE_clk_gate(clk_PERI_GATE_CLK_PERI_UID_SPI_REARFROM_IPCLKPORT_SPI_EXT_CLK, &clk_MIF_GATE_CLKCMU_PERI_SPI_REARFROM, (0x101f0840, 0, 0))
DEFINE_clk_gate(clk_MIF_MUXGATE_CLKCMU_PERI_SPI_FRONTFROM, CLK_NULL, (0x104602b0, 21, 0))
DEFINE_clk_mux(clk_MIF_MUX_CLKCMU_PERI_SPI_FRONTFROM, (&clk_MIF_FF_MUX_BUS_PLL_DIV2, &clk_OSCCLK), (0x104602b0, 12, 1), (0x104606b0, 12, 2), (0x104602b0, 21, 0), &clk_MIF_MUXGATE_CLKCMU_PERI_SPI_FRONTFROM)
DEFINE_clk_div(clk_MIF_DIV_CLKCMU_PERI_SPI_FRONTFROM, &clk_MIF_MUX_CLKCMU_PERI_SPI_FRONTFROM, (0x104604b0, 0, 6), (0x104604b0, 25, 1), &clk_MIF_MUXGATE_CLKCMU_PERI_SPI_FRONTFROM)
DEFINE_clk_gate(clk_MIF_GATE_CLKCMU_PERI_SPI_FRONTFROM, &clk_MIF_DIV_CLKCMU_PERI_SPI_FRONTFROM, (0x104608b0, 0, 0))
DEFINE_clk_gate(clk_PERI_GATE_CLK_PERI_UID_SPI_FRONTFROM_IPCLKPORT_PCLK, &clk_MIF_GATE_CLKCMU_PERI_BUS, (0x101f0814, 4, 0))
DEFINE_clk_gate(clk_PERI_GATE_CLK_PERI_UID_SPI_FRONTFROM_IPCLKPORT_SPI_EXT_CLK, &clk_MIF_GATE_CLKCMU_PERI_SPI_FRONTFROM, (0x101f083c, 0, 0))
DEFINE_clk_mux(clk_MIF_MUX_CLKCMU_FSYS_BUS, (&clk_MIF_FF_MUX_BUS_PLL_DIV2, &clk_MIF_FF_MUX_MEDIA_PLL_DIV2), (0x10460284, 12, 1), (0x10460684, 12, 2), (0x10460284, 21, 0), CLK_NULL)
DEFINE_clk_div(clk_MIF_DIV_CLKCMU_FSYS_BUS, &clk_MIF_MUX_CLKCMU_FSYS_BUS, (0x10460484, 0, 4), (0x10460484, 25, 1), CLK_NULL)
DEFINE_clk_gate(clk_MIF_GATE_CLKCMU_FSYS_BUS, &clk_MIF_DIV_CLKCMU_FSYS_BUS, (0x10460884, 0, 0))
DEFINE_clk_gate(clk_FSYS_GATE_CLK_FSYS_UID_PPMU_FSYS_IPCLKPORT_PCLK, &clk_MIF_GATE_CLKCMU_FSYS_BUS, (0x13730804, 18, 0))
DEFINE_clk_gate(clk_FSYS_GATE_CLK_FSYS_UID_PPMU_FSYS_IPCLKPORT_ACLK, &clk_MIF_GATE_CLKCMU_FSYS_BUS, (0x13730804, 17, 0))
DEFINE_clk_gate(clk_FSYS_GATE_CLK_FSYS_UID_BUSP3_FSYS_IPCLKPORT_HCLK, &clk_MIF_GATE_CLKCMU_FSYS_BUS, (0x13730804, 2, 0))
DEFINE_clk_gate(clk_FSYS_GATE_CLK_FSYS_UID_MMC0_IPCLKPORT_I_ACLK, &clk_MIF_GATE_CLKCMU_FSYS_BUS, (0x13730804, 8, 0))
DEFINE_clk_gate(clk_FSYS_GATE_CLK_FSYS_UID_MMC1_IPCLKPORT_I_ACLK, &clk_MIF_GATE_CLKCMU_FSYS_BUS, (0x13730804, 9, 0))
DEFINE_clk_gate(clk_FSYS_GATE_CLK_FSYS_UID_MMC2_IPCLKPORT_I_ACLK, &clk_MIF_GATE_CLKCMU_FSYS_BUS, (0x13730804, 10, 0))
DEFINE_clk_gate(clk_MIF_MUXGATE_CLKCMU_FSYS_MMC0, CLK_NULL, (0x10460288, 21, 0))
DEFINE_clk_mux(clk_MIF_MUX_CLKCMU_FSYS_MMC0, (&clk_MIF_FF_MUX_BUS_PLL_DIV2, &clk_MIF_FF_MUX_MEDIA_PLL_DIV2), (0x10460288, 12, 1), (0x10460688, 12, 2), (0x10460288, 21, 0), &clk_MIF_MUXGATE_CLKCMU_FSYS_MMC0)
DEFINE_clk_div(clk_MIF_DIV_CLKCMU_FSYS_MMC0, &clk_MIF_MUX_CLKCMU_FSYS_MMC0, (0x10460488, 0, 10), (0x10460488, 25, 1), &clk_MIF_MUXGATE_CLKCMU_FSYS_MMC0)
DEFINE_clk_gate(clk_MIF_GATE_CLKCMU_FSYS_MMC0, &clk_MIF_DIV_CLKCMU_FSYS_MMC0, (0x10460888, 0, 0))
DEFINE_clk_gate(clk_MIF_MUXGATE_CLKCMU_FSYS_MMC1, CLK_NULL, (0x1046028c, 21, 0))
DEFINE_clk_mux(clk_MIF_MUX_CLKCMU_FSYS_MMC1, (&clk_MIF_FF_MUX_BUS_PLL_DIV2, &clk_MIF_FF_MUX_MEDIA_PLL_DIV2), (0x1046028c, 12, 1), (0x1046068c, 12, 2), (0x1046028c, 21, 0), &clk_MIF_MUXGATE_CLKCMU_FSYS_MMC1)
DEFINE_clk_div(clk_MIF_DIV_CLKCMU_FSYS_MMC1, &clk_MIF_MUX_CLKCMU_FSYS_MMC1, (0x1046048c, 0, 10), (0x1046048c, 25, 1), &clk_MIF_MUXGATE_CLKCMU_FSYS_MMC1)
DEFINE_clk_gate(clk_MIF_GATE_CLKCMU_FSYS_MMC1, &clk_MIF_DIV_CLKCMU_FSYS_MMC1, (0x1046088c, 0, 0))
DEFINE_clk_gate(clk_MIF_MUXGATE_CLKCMU_FSYS_MMC2, CLK_NULL, (0x10460290, 21, 0))
DEFINE_clk_mux(clk_MIF_MUX_CLKCMU_FSYS_MMC2, (&clk_MIF_FF_MUX_BUS_PLL_DIV2, &clk_MIF_FF_MUX_MEDIA_PLL_DIV2), (0x10460290, 12, 1), (0x10460690, 12, 2), (0x10460290, 21, 0), &clk_MIF_MUXGATE_CLKCMU_FSYS_MMC2)
DEFINE_clk_div(clk_MIF_DIV_CLKCMU_FSYS_MMC2, &clk_MIF_MUX_CLKCMU_FSYS_MMC2, (0x10460490, 0, 10), (0x10460490, 25, 1), &clk_MIF_MUXGATE_CLKCMU_FSYS_MMC2)
DEFINE_clk_gate(clk_MIF_GATE_CLKCMU_FSYS_MMC2, &clk_MIF_DIV_CLKCMU_FSYS_MMC2, (0x10460890, 0, 0))
DEFINE_clk_gate(clk_FSYS_GATE_CLK_FSYS_UID_UPSIZER_BUS1_FSYS_IPCLKPORT_aclk, &clk_MIF_GATE_CLKCMU_FSYS_BUS, (0x13730804, 12, 0))
DEFINE_clk_gate(clk_FSYS_GATE_CLK_FSYS_UID_PDMA0_IPCLKPORT_ACLK_PDMA0, &clk_MIF_GATE_CLKCMU_FSYS_BUS, (0x13730804, 7, 0))
DEFINE_clk_gate(clk_FSYS_GATE_CLK_FSYS_UID_SROMC_IPCLKPORT_HCLK, &clk_MIF_GATE_CLKCMU_FSYS_BUS, (0x13730804, 6, 0))
DEFINE_clk_gate(clk_FSYS_GATE_CLK_FSYS_UID_USB20DRD_IPCLKPORT_HCLK_USB20_CTRL, &clk_MIF_GATE_CLKCMU_FSYS_BUS, (0x13730804, 21, 0))
DEFINE_clk_gate(clk_FSYS_GATE_CLK_FSYS_UID_USB20DRD_IPCLKPORT_ACLK_HSDRD, &clk_MIF_GATE_CLKCMU_FSYS_BUS, (0x13730804, 20, 0))
DEFINE_clk_gate(clk_MIF_MUXGATE_CLKCMU_FSYS_USB20DRD_REFCLK, CLK_NULL, (0x1046029c, 21, 0))
DEFINE_clk_mux(clk_MIF_MUX_CLKCMU_FSYS_USB20DRD_REFCLK, (&clk_MIF_FF_MUX_BUS_PLL_DIV2, &clk_MIF_FF_MUX_MEDIA_PLL_DIV2), (0x1046029c, 12, 1), (0x1046069c, 12, 2), (0x1046029c, 21, 0), &clk_MIF_MUXGATE_CLKCMU_FSYS_USB20DRD_REFCLK)
DEFINE_clk_div(clk_MIF_DIV_CLKCMU_FSYS_USB20DRD_REFCLK, &clk_MIF_MUX_CLKCMU_FSYS_USB20DRD_REFCLK, (0x1046049c, 0, 4), (0x1046049c, 25, 1), &clk_MIF_MUXGATE_CLKCMU_FSYS_USB20DRD_REFCLK)
DEFINE_clk_gate(clk_MIF_GATE_CLKCMU_FSYS_USB20DRD_REFCLK, &clk_MIF_DIV_CLKCMU_FSYS_USB20DRD_REFCLK, (0x1046089c, 0, 0))
DEFINE_clk_gate(clk_FSYS_GATE_CLK_FSYS_UID_USB20DRD_IPCLKPORT_HSDRD_ref_clk, &clk_MIF_GATE_CLKCMU_FSYS_USB20DRD_REFCLK, (0x13730828, 0, 0))
DEFINE_clk_fixed_rate(clk_CLKPHY_FSYS_USB20DRD_PHYCLOCK, CLK_NULL, 60000000, CLK_NULL)
DEFINE_clk_mux(clk_FSYS_MUX_CLKPHY_FSYS_USB20DRD_PHYCLOCK_USER, (&clk_OSCCLK, &clk_CLKPHY_FSYS_USB20DRD_PHYCLOCK), (0x13730230, 12, 1), (0x13730630, 12, 2), (0x13730230, 21, 0), CLK_NULL)
DEFINE_clk_pll_141xx(clk_USB_PLL, (0x13730100, 0, 0), (0x13730000, 0, 0), 14180, 1, &clk_FSYS_MUX_USB_PLL, {{50000000, 13, 400, 4, 0}})
DEFINE_clk_mux(clk_FSYS_MUX_USB_PLL, (&clk_OSCCLK, &clk_USB_PLL), (0x13730200, 12, 1), (0x13730600, 12, 2), (0x13730200, 21, 0), CLK_NULL)
DEFINE_clk_gate(clk_MIF_MUXGATE_CLKCMU_DISPAUD_BUS, CLK_NULL, (0x10460270, 21, 0))
DEFINE_clk_mux(clk_MIF_MUX_CLKCMU_DISPAUD_BUS, (&clk_MIF_FF_MUX_BUS_PLL_DIV2, &clk_MIF_FF_MUX_MEDIA_PLL_DIV2), (0x10460270, 12, 1), (0x10460670, 12, 2), (0x10460270, 21, 0), &clk_MIF_MUXGATE_CLKCMU_DISPAUD_BUS)
DEFINE_clk_div(clk_MIF_DIV_CLKCMU_DISPAUD_BUS, &clk_MIF_MUX_CLKCMU_DISPAUD_BUS, (0x10460470, 0, 4), (0x10460470, 25, 1), &clk_MIF_MUXGATE_CLKCMU_DISPAUD_BUS)
DEFINE_clk_gate(clk_MIF_GATE_CLKCMU_DISPAUD_BUS, &clk_MIF_DIV_CLKCMU_DISPAUD_BUS, (0x10460870, 0, 0))
DEFINE_clk_mux(clk_DISPAUD_MUX_CLKCMU_DISPAUD_BUS_USER, (&clk_OSCCLK, &clk_MIF_GATE_CLKCMU_DISPAUD_BUS), (0x148d0210, 12, 1), (0x148d0610, 12, 2), (0x148d0210, 21, 0), CLK_NULL)
DEFINE_clk_div(clk_DISPAUD_DIV_CLK_DISPAUD_APB, &clk_DISPAUD_MUX_CLKCMU_DISPAUD_BUS_USER, (0x148d0400, 0, 2), (0x148d0400, 25, 1), CLK_NULL)
DEFINE_clk_gate(clk_DISPAUD_GATE_CLK_DISPAUD_UID_CLKCMU_DISPAUD_BUS_PPMU, &clk_DISPAUD_MUX_CLKCMU_DISPAUD_BUS_USER, (0x148d0810, 3, 0))
DEFINE_clk_gate(clk_DISPAUD_GATE_CLK_DISPAUD_UID_CLKCMU_DISPAUD_BUS_DISP, &clk_DISPAUD_MUX_CLKCMU_DISPAUD_BUS_USER, (0x148d0810, 2, 0))
DEFINE_clk_gate(clk_DISPAUD_GATE_CLK_DISPAUD_UID_CLKCMU_DISPAUD_BUS, &clk_DISPAUD_MUX_CLKCMU_DISPAUD_BUS_USER, (0x148d0810, 0, 0))
DEFINE_clk_gate(clk_DISPAUD_GATE_CLK_DISPAUD_UID_CLK_DISPAUD_APB_DISP, &clk_DISPAUD_DIV_CLK_DISPAUD_APB, (0x148d0814, 1, 0))
DEFINE_clk_gate(clk_MIF_MUXGATE_CLKCMU_DISPAUD_DECON_INT_VCLK, CLK_NULL, (0x10460274, 21, 0))
DEFINE_clk_mux(clk_MIF_MUX_CLKCMU_DISPAUD_DECON_INT_VCLK, (&clk_MIF_FF_MUX_BUS_PLL_DIV2, &clk_MIF_FF_MUX_MEDIA_PLL_DIV2), (0x10460274, 12, 1), (0x10460674, 12, 2), (0x10460274, 21, 0), &clk_MIF_MUXGATE_CLKCMU_DISPAUD_DECON_INT_VCLK)
DEFINE_clk_div(clk_MIF_DIV_CLKCMU_DISPAUD_DECON_INT_VCLK, &clk_MIF_MUX_CLKCMU_DISPAUD_DECON_INT_VCLK, (0x10460474, 0, 4), (0x10460474, 25, 1), &clk_MIF_MUXGATE_CLKCMU_DISPAUD_DECON_INT_VCLK)
DEFINE_clk_gate(clk_MIF_GATE_CLKCMU_DISPAUD_DECON_INT_VCLK, &clk_MIF_DIV_CLKCMU_DISPAUD_DECON_INT_VCLK, (0x10460874, 0, 0))
DEFINE_clk_mux(clk_DISPAUD_MUX_CLKCMU_DISPAUD_DECON_INT_VCLK_USER, (&clk_OSCCLK, &clk_MIF_GATE_CLKCMU_DISPAUD_DECON_INT_VCLK), (0x148d0214, 12, 1), (0x148d0614, 12, 2), (0x148d0214, 21, 0), CLK_NULL)
DEFINE_clk_pll_141xx(clk_DISP_PLL, (0x148d0100, 0, 0), (0x148d0000, 0, 0), 14180, 10, &clk_DISPAUD_MUX_DISP_PLL, {{333000000, 13, 333, 1, 0}, {300000000, 13, 300, 1, 0}, {266000000, 13, 532, 2, 0}, {200000000, 13, 400, 2, 0}, {177000000, 13, 354, 2, 0}, {166000000, 13, 332, 2, 0}, {142000000, 13, 568, 3, 0}, {133000000, 13, 532, 3, 0}, {62000000, 13, 496, 4, 0}, {335000000, 13, 335, 1, 0}})
DEFINE_clk_mux(clk_DISPAUD_MUX_DISP_PLL, (&clk_OSCCLK, &clk_DISP_PLL), (0x148d0200, 12, 1), (0x148d0600, 12, 2), (0x148d0200, 21, 0), CLK_NULL)
DEFINE_clk_mux(clk_DISPAUD_MUX_CLK_DISPAUD_DECON_INT_VCLK, (&clk_DISPAUD_MUX_CLKCMU_DISPAUD_DECON_INT_VCLK_USER, &clk_DISPAUD_MUX_DISP_PLL), (0x148d021c, 12, 1), (0x148d061c, 12, 2), (0x148d021c, 21, 0), CLK_NULL)
DEFINE_clk_div(clk_DISPAUD_DIV_CLK_DISPAUD_DECON_INT_VCLK, &clk_DISPAUD_MUX_CLK_DISPAUD_DECON_INT_VCLK, (0x148d0404, 0, 3), (0x148d0404, 25, 1), CLK_NULL)
DEFINE_clk_gate(clk_DISPAUD_GATE_CLK_DISPAUD_UID_DECON_IPCLKPORT_I_VCLK, &clk_DISPAUD_DIV_CLK_DISPAUD_DECON_INT_VCLK, (0x148d081c, 0, 0))
DEFINE_clk_gate(clk_MIF_MUXGATE_CLKCMU_DISPAUD_DECON_INT_ECLK, CLK_NULL, (0x10460278, 21, 0))
DEFINE_clk_mux(clk_MIF_MUX_CLKCMU_DISPAUD_DECON_INT_ECLK, (&clk_MIF_FF_MUX_BUS_PLL_DIV2, &clk_MIF_FF_MUX_MEDIA_PLL_DIV2), (0x10460278, 12, 1), (0x10460678, 12, 2), (0x10460278, 21, 0), &clk_MIF_MUXGATE_CLKCMU_DISPAUD_DECON_INT_ECLK)
DEFINE_clk_div(clk_MIF_DIV_CLKCMU_DISPAUD_DECON_INT_ECLK, &clk_MIF_MUX_CLKCMU_DISPAUD_DECON_INT_ECLK, (0x10460478, 0, 4), (0x10460478, 25, 1), &clk_MIF_MUXGATE_CLKCMU_DISPAUD_DECON_INT_ECLK)
DEFINE_clk_gate(clk_MIF_GATE_CLKCMU_DISPAUD_DECON_INT_ECLK, &clk_MIF_DIV_CLKCMU_DISPAUD_DECON_INT_ECLK, (0x10460878, 0, 0))
DEFINE_clk_mux(clk_DISPAUD_MUX_CLKCMU_DISPAUD_DECON_INT_ECLK_USER, (&clk_OSCCLK, &clk_MIF_GATE_CLKCMU_DISPAUD_DECON_INT_ECLK), (0x148d0218, 12, 1), (0x148d0618, 12, 2), (0x148d0218, 21, 0), CLK_NULL)
DEFINE_clk_mux(clk_DISPAUD_MUX_CLK_DISPAUD_DECON_INT_ECLK, (&clk_DISPAUD_MUX_CLKCMU_DISPAUD_DECON_INT_ECLK_USER, &clk_DISPAUD_MUX_DISP_PLL), (0x148d0220, 12, 1), (0x148d0620, 12, 2), (0x148d0220, 21, 0), CLK_NULL)
DEFINE_clk_div(clk_DISPAUD_DIV_CLK_DISPAUD_DECON_INT_ECLK, &clk_DISPAUD_MUX_CLK_DISPAUD_DECON_INT_ECLK, (0x148d0408, 0, 3), (0x148d0408, 25, 1), CLK_NULL)
DEFINE_clk_gate(clk_DISPAUD_GATE_CLK_DISPAUD_UID_DECON_IPCLKPORT_I_ECLK, &clk_DISPAUD_DIV_CLK_DISPAUD_DECON_INT_ECLK, (0x148d0820, 0, 0))
DEFINE_clk_fixed_rate(clk_CLKIO_DISPAUD_MIXER_SCLK_AP, CLK_NULL, 12500000, CLK_NULL)
DEFINE_clk_gate(clk_DISPAUD_GATE_CLK_DISPAUD_UID_CON_DISPAUD_IPCLKPORT_I_EXT2AUD_BCK_gpio_I2S, &clk_CLKIO_DISPAUD_MIXER_SCLK_AP, (0x148d0834, 0, 0))
DEFINE_clk_fixed_rate(clk_CLKIO_DISPAUD_MIXER_BCLK_BT, CLK_NULL, 12500000, CLK_NULL)
DEFINE_clk_gate(clk_DISPAUD_GATE_CLK_DISPAUD_UID_CON_DISPAUD_IPCLKPORT_I_AUD_I2S_BCLK_BT_IN, &clk_CLKIO_DISPAUD_MIXER_BCLK_BT, (0x148d0838, 0, 0))
DEFINE_clk_fixed_rate(clk_CLKIO_DISPAUD_MIXER_BCLK_CP, CLK_NULL, 12500000, CLK_NULL)
DEFINE_clk_gate(clk_DISPAUD_GATE_CLK_DISPAUD_UID_CON_DISPAUD_IPCLKPORT_I_CP2AUD_BCK, &clk_CLKIO_DISPAUD_MIXER_BCLK_CP, (0x148d083c, 0, 0))
DEFINE_clk_fixed_rate(clk_CLKIO_DISPAUD_MIXER_BCLK_FM, CLK_NULL, 12500000, CLK_NULL)
DEFINE_clk_gate(clk_DISPAUD_GATE_CLK_DISPAUD_UID_CON_DISPAUD_IPCLKPORT_I_AUD_I2S_BCLK_FM_IN, &clk_CLKIO_DISPAUD_MIXER_BCLK_FM, (0x148d0840, 0, 0))
DEFINE_clk_pll_1431x(clk_AUD_PLL, (0x148d01c0, 0, 0), (0x148d00c0, 0, 0), 14310, 4, &clk_DISPAUD_MUX_AUD_PLL, {{196608000, 1, 30, 2, 16213}, {98304000, 1, 30, 3, 16213}, {49152000, 1, 30, 4, 16213}, {98304119, 1, 30, 3, 16215}})
DEFINE_clk_mux(clk_DISPAUD_MUX_AUD_PLL, (&clk_OSCCLK, &clk_AUD_PLL), (0x148d0204, 12, 1), (0x148d0604, 12, 2), (0x148d0204, 21, 0), CLK_NULL)
DEFINE_clk_div(clk_DISPAUD_DIV_CLK_DISPAUD_MIXER, &clk_DISPAUD_MUX_AUD_PLL, (0x148d0410, 0, 4), (0x148d0410, 25, 1), CLK_NULL)
DEFINE_clk_gate(clk_DISPAUD_GATE_CLK_DISPAUD_UID_MIXER_AUD_IPCLKPORT_SYSCLK, &clk_DISPAUD_DIV_CLK_DISPAUD_MIXER, (0x148d0830, 0, 0))
DEFINE_clk_gate(clk_DISPAUD_GATE_CLK_DISPAUD_UID_CLK_DISPAUD_APB_AUD, &clk_DISPAUD_DIV_CLK_DISPAUD_APB, (0x148d0814, 2, 0))
DEFINE_clk_fixed_rate(clk_CLKIO_DISPAUD_AUDIOCDCLK0, CLK_NULL, 100000000, CLK_NULL)
DEFINE_clk_mux(clk_DISPAUD_MUX_CLK_DISPAUD_MI2S, (&clk_DISPAUD_MUX_AUD_PLL, &clk_CLKIO_DISPAUD_AUDIOCDCLK0), (0x148d022c, 12, 1), (0, 0, 0), (0x148d022c, 21, 0), CLK_NULL)
DEFINE_clk_div(clk_DISPAUD_DIV_CLK_DISPAUD_MI2S, &clk_DISPAUD_MUX_CLK_DISPAUD_MI2S, (0x148d040c, 0, 4), (0x148d040c, 25, 1), CLK_NULL)
DEFINE_clk_gate(clk_DISPAUD_GATE_CLK_DISPAUD_UID_MI2S_AUD_IPCLKPORT_I2SCODCLKI, &clk_DISPAUD_DIV_CLK_DISPAUD_MI2S, (0x148d082c, 0, 0))
DEFINE_clk_gate(clk_DISPAUD_GATE_CLK_DISPAUD_UID_CLK_DISPAUD_APB_AUD_AMP, &clk_DISPAUD_DIV_CLK_DISPAUD_APB, (0x148d0814, 3, 0))
DEFINE_clk_gate(clk_DISPAUD_GATE_CLK_DISPAUD_UID_MI2S_AMP_IPCLKPORT_I2SCODCLKI, &clk_DISPAUD_DIV_CLK_DISPAUD_MI2S, (0x148d082c, 1, 0))
DEFINE_clk_fixed_rate(clk_CLKPHY_DISPAUD_MIPIPHY_TXBYTECLKHS, CLK_NULL, 188000000, CLK_NULL)
DEFINE_clk_mux(clk_DISPAUD_MUX_CLKPHY_DISPAUD_MIPIPHY_TXBYTECLKHS_USER, (&clk_OSCCLK, &clk_CLKPHY_DISPAUD_MIPIPHY_TXBYTECLKHS), (0x148d0224, 12, 1), (0x148d0624, 12, 2), (0x148d0224, 21, 0), CLK_NULL)
DEFINE_clk_fixed_rate(clk_CLKPHY_DISPAUD_MIPIPHY_RXCLKESC0, CLK_NULL, 188000000, CLK_NULL)
DEFINE_clk_mux(clk_DISPAUD_MUX_CLKPHY_DISPAUD_MIPIPHY_RXCLKESC0_USER, (&clk_OSCCLK, &clk_CLKPHY_DISPAUD_MIPIPHY_RXCLKESC0), (0x148d0228, 12, 1), (0x148d0628, 12, 2), (0x148d0228, 21, 0), CLK_NULL)
DEFINE_clk_gate(clk_PMU_DEBUG_CLKOUT_SEL08, &clk_OSCCLK, (0x10480a00, 8, 0))
DEFINE_clk_gate(clk_PMU_DEBUG_CLKOUT_SEL09, &clk_OSCCLK, (0x10480a00, 9, 0))
DEFINE_clk_gate(clk_PMU_DEBUG_CLKOUT_SEL10, &clk_OSCCLK, (0x10480a00, 10, 0))
DEFINE_clk_gate(clk_PMU_DEBUG_CLKOUT_SEL11, &clk_OSCCLK, (0x10480a00, 11, 0))
DEFINE_clk_gate(clk_PMU_DEBUG_CLKOUT_SEL12, &clk_OSCCLK, (0x10480a00, 12, 0))
DEFINE_clk_gate(clk_PMU_DEBUG_CLKOUT_DISABLE, &clk_OSCCLK, (0x10480a00, 0, 0))
DEFINE_clk_gate(clk_MIF_MUXGATE_CLKCMU_ISP_VRA, CLK_NULL, (0x10460264, 21, 0))
DEFINE_clk_mux(clk_MIF_MUX_CLKCMU_ISP_VRA, (&clk_MIF_FF_MUX_BUS_PLL_DIV2, &clk_MIF_FF_MUX_MEDIA_PLL_DIV2, &clk_MIF_MUX_BUS_PLL), (0x10460264, 12, 2), (0x10460664, 12, 4), (0x10460264, 21, 0), &clk_MIF_MUXGATE_CLKCMU_ISP_VRA)
DEFINE_clk_div(clk_MIF_DIV_CLKCMU_ISP_VRA, &clk_MIF_MUX_CLKCMU_ISP_VRA, (0x10460464, 0, 4), (0x10460464, 25, 1), &clk_MIF_MUXGATE_CLKCMU_ISP_VRA)
DEFINE_clk_gate(clk_MIF_GATE_CLKCMU_ISP_VRA, &clk_MIF_DIV_CLKCMU_ISP_VRA, (0x10460864, 0, 0))
DEFINE_clk_mux(clk_ISP_MUX_CLKCMU_ISP_VRA_USER, (&clk_OSCCLK, &clk_MIF_GATE_CLKCMU_ISP_VRA), (0x144d0210, 12, 1), (0x144d0610, 12, 2), (0x144d0210, 21, 0), CLK_NULL)
DEFINE_clk_pll_141xx(clk_ISP_PLL, (0x144d0100, 0, 0), (0x144d0000, 0, 0), 14180, 12, &clk_ISP_MUX_ISP_PLL, {{533000000, 13, 533, 1, 0}, {466000000, 13, 466, 1, 0}, {400000000, 13, 400, 1, 0}, {372000000, 13, 372, 1, 0}, {333000000, 13, 333, 1, 0}, {300000000, 13, 300, 1, 0}, {266000000, 13, 532, 2, 0}, {200000000, 13, 400, 2, 0}, {177000000, 13, 354, 2, 0}, {166000000, 13, 332, 2, 0}, {133000000, 13, 532, 3, 0}, {276000000, 13, 552, 2, 0}})
DEFINE_clk_mux(clk_ISP_MUX_ISP_PLL, (&clk_OSCCLK, &clk_ISP_PLL), (0x144d0200, 12, 1), (0x144d0600, 12, 2), (0x144d0200, 21, 0), CLK_NULL)
DEFINE_clk_mux(clk_ISP_MUX_CLK_ISP_VRA, (&clk_ISP_MUX_CLKCMU_ISP_VRA_USER, &clk_ISP_MUX_ISP_PLL), (0x144d0220, 12, 1), (0x144d0620, 12, 2), (0x144d0220, 21, 0), CLK_NULL)
DEFINE_clk_gate(clk_MIF_MUXGATE_CLKCMU_ISP_CAM, CLK_NULL, (0x10460268, 21, 0))
DEFINE_clk_mux(clk_MIF_MUX_CLKCMU_ISP_CAM, (&clk_MIF_FF_MUX_BUS_PLL_DIV2, &clk_MIF_FF_MUX_MEDIA_PLL_DIV2), (0x10460268, 12, 1), (0x10460668, 12, 2), (0x10460268, 21, 0), &clk_MIF_MUXGATE_CLKCMU_ISP_CAM)
DEFINE_clk_div(clk_MIF_DIV_CLKCMU_ISP_CAM, &clk_MIF_MUX_CLKCMU_ISP_CAM, (0x10460468, 0, 4), (0x10460468, 25, 1), &clk_MIF_MUXGATE_CLKCMU_ISP_CAM)
DEFINE_clk_gate(clk_MIF_GATE_CLKCMU_ISP_CAM, &clk_MIF_DIV_CLKCMU_ISP_CAM, (0x10460868, 0, 0))
DEFINE_clk_mux(clk_ISP_MUX_CLKCMU_ISP_CAM_USER, (&clk_OSCCLK, &clk_MIF_GATE_CLKCMU_ISP_CAM), (0x144d0214, 12, 1), (0x144d0614, 12, 2), (0x144d0214, 21, 0), CLK_NULL)
DEFINE_clk_mux(clk_ISP_MUX_CLK_ISP_CAM, (&clk_ISP_MUX_CLKCMU_ISP_CAM_USER, &clk_ISP_MUX_ISP_PLL), (0x144d0224, 12, 1), (0x144d0628, 12, 2), (0x144d0224, 21, 0), CLK_NULL)
DEFINE_clk_mux(clk_ISP_MUX_CLK_ISP_ISPD, (&clk_ISP_MUX_CLK_ISP_VRA, &clk_ISP_MUX_CLK_ISP_CAM), (0x144d022c, 12, 1), (0x144d062c, 12, 2), (0x144d022c, 21, 0), CLK_NULL)
DEFINE_clk_gate(clk_ISP_GATE_CLK_ISP_UID_CLK_ISP_ISPD_PPMU, &clk_ISP_MUX_CLK_ISP_ISPD, (0x144d0818, 1, 0))
DEFINE_clk_gate(clk_ISP_GATE_CLK_ISP_UID_CLK_ISP_ISPD, &clk_ISP_MUX_CLK_ISP_ISPD, (0x144d0818, 0, 0))
DEFINE_clk_gate(clk_ISP_GATE_CLK_ISP_UID_CLK_ISP_CAM, &clk_ISP_MUX_CLK_ISP_CAM, (0x144d081c, 0, 0))
DEFINE_clk_div(clk_ISP_DIV_CLK_ISP_CAM_HALF, &clk_ISP_MUX_CLK_ISP_CAM, (0x144d0404, 0, 2), (0x144d0404, 25, 1), CLK_NULL)
DEFINE_clk_gate(clk_ISP_GATE_CLK_ISP_UID_CLK_ISP_CAM_HALF, &clk_ISP_DIV_CLK_ISP_CAM_HALF, (0x144d0820, 0, 0))
DEFINE_clk_gate(clk_MIF_MUXGATE_CLKCMU_ISP_ISP, CLK_NULL, (0x1046026c, 21, 0))
DEFINE_clk_mux(clk_MIF_MUX_CLKCMU_ISP_ISP, (&clk_MIF_FF_MUX_BUS_PLL_DIV2, &clk_MIF_FF_MUX_MEDIA_PLL_DIV2), (0x1046026c, 12, 1), (0x1046066c, 12, 2), (0x1046026c, 21, 0), &clk_MIF_MUXGATE_CLKCMU_ISP_ISP)
DEFINE_clk_div(clk_MIF_DIV_CLKCMU_ISP_ISP, &clk_MIF_MUX_CLKCMU_ISP_ISP, (0x1046046c, 0, 4), (0x1046046c, 25, 1), &clk_MIF_MUXGATE_CLKCMU_ISP_ISP)
DEFINE_clk_gate(clk_MIF_GATE_CLKCMU_ISP_ISP, &clk_MIF_DIV_CLKCMU_ISP_ISP, (0x1046086c, 0, 0))
DEFINE_clk_mux(clk_ISP_MUX_CLKCMU_ISP_ISP_USER, (&clk_OSCCLK, &clk_MIF_GATE_CLKCMU_ISP_ISP), (0x144d0218, 12, 1), (0x144d0618, 12, 2), (0x144d0218, 21, 0), CLK_NULL)
DEFINE_clk_mux(clk_ISP_MUX_CLK_ISP_ISP, (&clk_ISP_MUX_CLKCMU_ISP_ISP_USER, &clk_ISP_MUX_ISP_PLL), (0x144d0228, 12, 1), (0x144d0624, 12, 2), (0x144d0228, 21, 0), CLK_NULL)
DEFINE_clk_gate(clk_ISP_GATE_CLK_ISP_UID_CLK_ISP_VRA, &clk_ISP_MUX_CLK_ISP_VRA, (0x144d0810, 0, 0))
DEFINE_clk_div(clk_ISP_DIV_CLK_ISP_APB, &clk_ISP_MUX_CLK_ISP_VRA, (0x144d0400, 0, 2), (0x144d0400, 25, 1), CLK_NULL)
DEFINE_clk_fixed_rate(clk_CLKPHY_ISP_S_RXBYTECLKHS0_S4, CLK_NULL, 188000000, CLK_NULL)
DEFINE_clk_mux(clk_ISP_MUX_CLKPHY_ISP_S_RXBYTECLKHS0_S4_USER, (&clk_OSCCLK, &clk_CLKPHY_ISP_S_RXBYTECLKHS0_S4), (0x144d0230, 12, 1), (0x144d0630, 12, 2), (0x144d0230, 21, 0), CLK_NULL)
DEFINE_clk_fixed_rate(clk_CLKPHY_ISP_S_RXBYTECLKHS0_S4S, CLK_NULL, 188000000, CLK_NULL)
DEFINE_clk_mux(clk_ISP_MUX_CLKPHY_ISP_S_RXBYTECLKHS0_S4S_USER, (&clk_OSCCLK, &clk_CLKPHY_ISP_S_RXBYTECLKHS0_S4S), (0x144d0234, 12, 1), (0x144d0634, 12, 2), (0x144d0234, 21, 0), CLK_NULL)
DEFINE_clk_gate(clk_MIF_GATE_CLK_MIF_UID_WRAP_ADC_IF_IPCLKPORT_I_OSC_SYS, &clk_OSCCLK, (0x1046080c, 3, 0))
DEFINE_clk_pll_141xx(clk_MEM_PLL, (0x10460100, 0, 0), (0x10460000, 0, 0), 14170, 7, &clk_MIF_MUX_MEM_PLL, {{1804400000, 5, 347, 0, 0}, {1670500000, 4, 257, 0, 0}, {1456000000, 4, 224, 0, 0}, {1352000000, 3, 156, 0, 0}, {1092000000, 4, 168, 0, 0}, {902200000, 5, 347, 1, 0}, {549250000, 4, 169, 1, 0}})
DEFINE_clk_mux(clk_MIF_MUX_MEM_PLL, (&clk_OSCCLK, &clk_MEM_PLL), (0x10460200, 12, 1), (0x10460600, 12, 2), (0x10460200, 21, 0), CLK_NULL)
DEFINE_clk_fixed_div(clk_MIF_FF_MUX_MEM_PLL_DIV2, &clk_MIF_MUX_MEM_PLL, 2, CLK_NULL)
DEFINE_clk_mux(clk_MIF_MUX_CLK_MIF_BUSD, (&clk_MIF_FF_MUX_BUS_PLL_DIV2, &clk_MIF_FF_MUX_MEDIA_PLL_DIV2, &clk_MIF_FF_MUX_MEM_PLL_DIV2), (0x10460220, 12, 2), (0x10460620, 12, 4), (0x10460220, 21, 0), CLK_NULL)
DEFINE_clk_div(clk_MIF_DIV_CLK_MIF_BUSD, &clk_MIF_MUX_CLK_MIF_BUSD, (0x10460420, 0, 4), (0x10460420, 25, 1), CLK_NULL)
DEFINE_clk_div(clk_MIF_DIV_CLK_MIF_APB, &clk_MIF_DIV_CLK_MIF_BUSD, (0x10460424, 0, 2), (0x10460424, 25, 1), CLK_NULL)
DEFINE_clk_gate(clk_MIF_GATE_CLK_MIF_UID_WRAP_ADC_IF_IPCLKPORT_PCLK_S1, &clk_MIF_DIV_CLK_MIF_APB, (0x10460828, 21, 0))
DEFINE_clk_gate(clk_MIF_GATE_CLK_MIF_UID_WRAP_ADC_IF_IPCLKPORT_PCLK_S0, &clk_MIF_DIV_CLK_MIF_APB, (0x10460828, 20, 0))
DEFINE_clk_gate(clk_MIF_GATE_CLK_MIF_UID_ASYNCAPB_HSI2C_CP_IPCLKPORT_PCLKS, &clk_MIF_DIV_CLK_MIF_APB, (0x10460828, 15, 0))
DEFINE_clk_gate(clk_MIF_GATE_CLK_MIF_UID_ASYNCAPB_HSI2C_AP_IPCLKPORT_PCLKS, &clk_MIF_DIV_CLK_MIF_APB, (0x10460828, 14, 0))
DEFINE_clk_div(clk_MIF_DIV_CLK_MIF_HSI2C, &clk_MIF_FF_MUX_MEDIA_PLL_DIV2, (0x10460430, 0, 4), (0x10460430, 25, 1), CLK_NULL)
DEFINE_clk_gate(clk_MIF_GATE_CLK_MIF_UID_MODAPIF_V1P5_MIF_CP_IPCLKPORT_PCLK_HSI2C, &clk_MIF_DIV_CLK_MIF_HSI2C, (0x10460840, 6, 0))
DEFINE_clk_gate(clk_MIF_GATE_CLK_MIF_UID_MODAPIF_V1P5_MIF_CP_IPCLKPORT_PCLK_HSI2C_BAT_1, &clk_MIF_DIV_CLK_MIF_HSI2C, (0x10460840, 5, 0))
DEFINE_clk_gate(clk_MIF_GATE_CLK_MIF_UID_MODAPIF_V1P5_MIF_CP_IPCLKPORT_PCLK_HSI2C_BAT_0, &clk_MIF_DIV_CLK_MIF_HSI2C, (0x10460840, 4, 0))
DEFINE_clk_gate(clk_MIF_GATE_CLK_MIF_UID_HSI2C_MIF_IPCLKPORT_iTCLK, &clk_MIF_DIV_CLK_MIF_HSI2C, (0x10460840, 3, 0))
DEFINE_clk_gate(clk_MIF_GATE_CLK_MIF_UID_HSI2C_MIF_IPCLKPORT_iPCLK, &clk_MIF_DIV_CLK_MIF_HSI2C, (0x10460840, 2, 0))
DEFINE_clk_gate(clk_MIF_GATE_CLK_MIF_UID_ASYNCAPB_HSI2C_CP_IPCLKPORT_PCLKM, &clk_MIF_DIV_CLK_MIF_HSI2C, (0x10460840, 1, 0))
DEFINE_clk_gate(clk_MIF_GATE_CLK_MIF_UID_ASYNCAPB_HSI2C_AP_IPCLKPORT_PCLKM, &clk_MIF_DIV_CLK_MIF_HSI2C, (0x10460840, 0, 0))
DEFINE_clk_gate(clk_MIF_MUXGATE_CLKCMU_ISP_SENSOR0, CLK_NULL, (0x104602c4, 21, 0))
DEFINE_clk_mux(clk_MIF_MUX_CLKCMU_ISP_SENSOR0, (&clk_MIF_FF_MUX_BUS_PLL_DIV2, &clk_OSCCLK), (0x104602c4, 12, 1), (0x104606c4, 12, 2), (0x104602c4, 21, 0), &clk_MIF_MUXGATE_CLKCMU_ISP_SENSOR0)
DEFINE_clk_div(clk_MIF_DIV_CLKCMU_ISP_SENSOR0, &clk_MIF_MUX_CLKCMU_ISP_SENSOR0, (0x104604c4, 0, 6), (0x104604c4, 25, 1), &clk_MIF_MUXGATE_CLKCMU_ISP_SENSOR0)
DEFINE_clk_gate(clk_MIF_GATE_CLKCMU_ISP_SENSOR0, &clk_MIF_DIV_CLKCMU_ISP_SENSOR0, (0x104608c4, 0, 0))
DEFINE_clk_gate(clk_MIF_MUXGATE_CLKCMU_ISP_SENSOR1, CLK_NULL, (0x104602c8, 21, 0))
DEFINE_clk_mux(clk_MIF_MUX_CLKCMU_ISP_SENSOR1, (&clk_MIF_FF_MUX_BUS_PLL_DIV2, &clk_OSCCLK), (0x104602c8, 12, 1), (0x104606c8, 12, 2), (0x104602c8, 21, 0), &clk_MIF_MUXGATE_CLKCMU_ISP_SENSOR1)
DEFINE_clk_div(clk_MIF_DIV_CLKCMU_ISP_SENSOR1, &clk_MIF_MUX_CLKCMU_ISP_SENSOR1, (0x104604c8, 0, 6), (0x104604c8, 25, 1), &clk_MIF_MUXGATE_CLKCMU_ISP_SENSOR1)
DEFINE_clk_gate(clk_MIF_GATE_CLKCMU_ISP_SENSOR1, &clk_MIF_DIV_CLKCMU_ISP_SENSOR1, (0x104608c8, 0, 0))
DEFINE_clk_gate(clk_MIF_MUXGATE_CLKCMU_ISP_SENSOR2, CLK_NULL, (0x104602cc, 21, 0))
DEFINE_clk_mux(clk_MIF_MUX_CLKCMU_ISP_SENSOR2, (&clk_MIF_FF_MUX_BUS_PLL_DIV2, &clk_OSCCLK), (0x104602cc, 12, 1), (0x104606cc, 12, 2), (0x104602cc, 21, 0), &clk_MIF_MUXGATE_CLKCMU_ISP_SENSOR2)
DEFINE_clk_div(clk_MIF_DIV_CLKCMU_ISP_SENSOR2, &clk_MIF_MUX_CLKCMU_ISP_SENSOR2, (0x104604cc, 0, 6), (0x104604cc, 25, 1), &clk_MIF_MUXGATE_CLKCMU_ISP_SENSOR2)
DEFINE_clk_gate(clk_MIF_GATE_CLKCMU_ISP_SENSOR2, &clk_MIF_DIV_CLKCMU_ISP_SENSOR2, (0x104608cc, 0, 0))

/* VIRTUAL CLOCKS */

DEFINE_pxmxdx(vclk_pxmxdx_mfcmscl, VCLK_NULL, {{&clk_MFCMSCL_MUX_CLKCMU_MFCMSCL_MSCL_USER, 1, 0}, {&clk_MFCMSCL_MUX_CLKCMU_MFCMSCL_MFC_USER, 1, 0}, {&clk_MFCMSCL_DIV_CLK_MFCMSCL_APB, 2, -1}, {&clk_MIF_MUXGATE_CLKCMU_MFCMSCL_MSCL, 1, 0}, {&clk_MIF_MUXGATE_CLKCMU_MFCMSCL_MFC, 1, 0}})
DEFINE_grpgate(vclk_gate_mfcmscl_common, &vclk_pxmxdx_mfcmscl, (&clk_MFCMSCL_GATE_CLK_MFCMSCL_UID_CLKCMU_MFCMSCL_MSCL_PPMU, &clk_MFCMSCL_GATE_CLK_MFCMSCL_UID_CLKCMU_MFCMSCL_MSCL))
DEFINE_grpgate(vclk_gate_mfcmscl_common_mscl, &vclk_gate_mfcmscl_common, (&clk_MFCMSCL_GATE_CLK_MFCMSCL_UID_CLKCMU_MFCMSCL_MSCL_D))
DEFINE_grpgate(vclk_gate_mfcmscl_sysmmu_mscl, &vclk_gate_mfcmscl_common_mscl, (&clk_MFCMSCL_MUX_CLKCMU_MFCMSCL_MSCL_USER))
DEFINE_grpgate(vclk_gate_mfcmscl_mfc, &vclk_gate_mfcmscl_common, (&clk_MFCMSCL_GATE_CLK_MFCMSCL_UID_CLKCMU_MFCMSCL_MFC))
DEFINE_grpgate(vclk_gate_mfcmscl_sysmmu_mfc, &vclk_gate_mfcmscl_mfc, (&clk_MFCMSCL_MUX_CLKCMU_MFCMSCL_MSCL_USER))
DEFINE_grpgate(vclk_gate_mfcmscl_ppmu, &vclk_gate_mfcmscl_common, (&clk_MFCMSCL_MUX_CLKCMU_MFCMSCL_MSCL_USER))
DEFINE_grpgate(vclk_gate_mfcmscl_bts, &vclk_gate_mfcmscl_common, (&clk_MFCMSCL_MUX_CLKCMU_MFCMSCL_MSCL_USER))
DEFINE_grpgate(vclk_gate_mfcmscl_mscl_bi, &vclk_gate_mfcmscl_common_mscl, (&clk_MFCMSCL_GATE_CLK_MFCMSCL_UID_CLKCMU_MFCMSCL_MSCL_BI))
DEFINE_grpgate(vclk_gate_mfcmscl_mscl_poly, &vclk_gate_mfcmscl_common_mscl, (&clk_MFCMSCL_GATE_CLK_MFCMSCL_UID_CLKCMU_MFCMSCL_MSCL_POLY))
DEFINE_grpgate(vclk_gate_mfcmscl_jpeg, &vclk_gate_mfcmscl_common_mscl, (&clk_MFCMSCL_GATE_CLK_MFCMSCL_UID_CLKCMU_MFCMSCL_MSCL_JPEG))
DEFINE_pxmxdx(vclk_pxmxdx_top, VCLK_NULL, {})
DEFINE_grpgate(vclk_gate_g3d_common, VCLK_NYI, (&clk_G3D_GATE_CLK_G3D_UID_PPMU_G3D_IPCLKPORT_ACLK, &clk_G3D_GATE_CLK_G3D_UID_PPMU_G3D_IPCLKPORT_PCLK, &clk_G3D_GATE_CLK_G3D_UID_QE_G3D_IPCLKPORT_ACLK, &clk_G3D_GATE_CLK_G3D_UID_QE_G3D_IPCLKPORT_PCLK))
DEFINE_grpgate(vclk_gate_g3d_sysmmu, &vclk_gate_g3d_common, (&clk_G3D_DIV_CLK_G3D_BUS))
DEFINE_grpgate(vclk_gate_g3d_ppmu, &vclk_gate_g3d_common, (&clk_G3D_DIV_CLK_G3D_BUS))
DEFINE_grpgate(vclk_gate_g3d_bts, &vclk_gate_g3d_common, (&clk_G3D_DIV_CLK_G3D_BUS))
DEFINE_grpgate(vclk_gate_g3d_g3d, &vclk_gate_g3d_common, (&clk_G3D_GATE_CLK_G3D_UID_G3D_IPCLKPORT_CLK, &clk_G3D_GATE_CLK_G3D_UID_ASYNCS_D0_G3D_IPCLKPORT_I_CLK, &clk_G3D_GATE_CLK_G3D_UID_ASYNC_G3D_P_IPCLKPORT_PCLKM, &clk_G3D_GATE_CLK_G3D_UID_SYSREG_G3D_IPCLKPORT_PCLK))
DEFINE_grpgate(vclk_gate_peri_peric1, VCLK_NULL, ())
DEFINE_grpgate(vclk_gate_peri_pwm_motor, &vclk_gate_peri_peric1, (&clk_PERI_GATE_CLK_PERI_UID_PWM_MOTOR_IPCLKPORT_i_PCLK_S0))
DEFINE_grpgate(vclk_gate_peri_sclk_pwm_motor, VCLK_NULL, (&clk_PERI_GATE_CLK_PERI_UID_PWM_MOTOR_IPCLKPORT_i_OSCCLK))
DEFINE_grpgate(vclk_gate_peri_mct, VCLK_NULL, (&clk_PERI_GATE_CLK_PERI_UID_MCT_IPCLKPORT_PCLK))
DEFINE_grpgate(vclk_gate_peri_peric0, VCLK_NULL, (&clk_PERI_GATE_CLK_PERI_UID_BUSP1_PERIC0_IPCLKPORT_HCLK))
DEFINE_grpgate(vclk_gate_peri_i2c_sensor1, &vclk_gate_peri_peric0, (&clk_PERI_GATE_CLK_PERI_UID_I2C_SENSOR1_IPCLKPORT_PCLK))
DEFINE_grpgate(vclk_gate_peri_i2c_sensor2, &vclk_gate_peri_peric0, (&clk_PERI_GATE_CLK_PERI_UID_I2C_SENSOR2_IPCLKPORT_PCLK))
DEFINE_grpgate(vclk_gate_peri_i2c_tsp, &vclk_gate_peri_peric0, (&clk_PERI_GATE_CLK_PERI_UID_I2C_TSP_IPCLKPORT_PCLK))
DEFINE_grpgate(vclk_gate_peri_i2c_touchkey, &vclk_gate_peri_peric0, (&clk_PERI_GATE_CLK_PERI_UID_I2C_TOUCHKEY_IPCLKPORT_PCLK))
DEFINE_grpgate(vclk_gate_peri_i2c_fuelgauge, &vclk_gate_peri_peric0, (&clk_PERI_GATE_CLK_PERI_UID_I2C_FUELGAUGE_IPCLKPORT_PCLK))
DEFINE_grpgate(vclk_gate_peri_i2c_spkamp, &vclk_gate_peri_peric0, (&clk_PERI_GATE_CLK_PERI_UID_I2C_SPKAMP_IPCLKPORT_PCLK))
DEFINE_grpgate(vclk_gate_peri_i2c_nfc, &vclk_gate_peri_peric0, (&clk_PERI_GATE_CLK_PERI_UID_I2C_NFC_IPCLKPORT_PCLK))
DEFINE_grpgate(vclk_gate_peri_i2c_muic, &vclk_gate_peri_peric0, (&clk_PERI_GATE_CLK_PERI_UID_I2C_MUIC_IPCLKPORT_PCLK))
DEFINE_grpgate(vclk_gate_peri_i2c_ifpmic, &vclk_gate_peri_peric0, (&clk_PERI_GATE_CLK_PERI_UID_I2C_IFPMIC_IPCLKPORT_PCLK))
DEFINE_grpgate(vclk_gate_peri_hsi2c_frontcam, &vclk_gate_peri_peric1, (&clk_PERI_GATE_CLK_PERI_UID_HSI2C_FRONTCAM_IPCLKPORT_iPCLK))
DEFINE_grpgate(vclk_gate_peri_hsi2c_maincam, &vclk_gate_peri_peric1, (&clk_PERI_GATE_CLK_PERI_UID_HSI2C_MAINCAM_IPCLKPORT_iPCLK))
DEFINE_grpgate(vclk_gate_peri_hsi2c_depthcam, &vclk_gate_peri_peric0, (&clk_PERI_GATE_CLK_PERI_UID_HSI2C_DEPTHCAM_IPCLKPORT_iPCLK))
DEFINE_grpgate(vclk_gate_peri_hsi2c_frontsensor, &vclk_gate_peri_peric0, (&clk_PERI_GATE_CLK_PERI_UID_HSI2C_FRONTSENSOR_IPCLKPORT_iPCLK))
DEFINE_grpgate(vclk_gate_peri_hsi2c_rearaf, &vclk_gate_peri_peric0, (&clk_PERI_GATE_CLK_PERI_UID_HSI2C_REARAF_IPCLKPORT_iPCLK))
DEFINE_grpgate(vclk_gate_peri_hsi2c_rearsensor, &vclk_gate_peri_peric0, (&clk_PERI_GATE_CLK_PERI_UID_HSI2C_REARSENSOR_IPCLKPORT_iPCLK))
DEFINE_grpgate(vclk_gate_peri_gpio_touch, &vclk_gate_peri_peric1, (&clk_PERI_GATE_CLK_PERI_UID_GPIO_TOUCH_IPCLKPORT_PCLK))
DEFINE_grpgate(vclk_gate_peri_gpio_top, &vclk_gate_peri_peric1, (&clk_PERI_GATE_CLK_PERI_UID_GPIO_TOP_IPCLKPORT_PCLK))
DEFINE_grpgate(vclk_gate_peri_gpio_nfc, &vclk_gate_peri_peric1, (&clk_PERI_GATE_CLK_PERI_UID_GPIO_NFC_IPCLKPORT_PCLK))
DEFINE_grpgate(vclk_gate_peri_gpio_ese, &vclk_gate_peri_peric1, (&clk_PERI_GATE_CLK_PERI_UID_GPIO_ESE_IPCLKPORT_PCLK))
DEFINE_grpgate(vclk_gate_peri_gpio_alive, &vclk_gate_peri_peric1, (&clk_MIF_DIV_CLKCMU_PERI_BUS))
DEFINE_grpgate(vclk_gate_peri_wdt_cpucl0, VCLK_NULL, (&clk_PERI_GATE_CLK_PERI_UID_WDT_CPUCL0_IPCLKPORT_PCLK))
DEFINE_grpgate(vclk_gate_peri_wdt_cpucl1, VCLK_NULL, (&clk_PERI_GATE_CLK_PERI_UID_WDT_CPUCL1_IPCLKPORT_PCLK))
DEFINE_m1d1g1(vclk_sclk_uart_debug, &vclk_gate_peri_peric0, &clk_MIF_MUX_CLKCMU_PERI_UART_DEBUG, &clk_MIF_DIV_CLKCMU_PERI_UART_DEBUG, &clk_MIF_GATE_CLKCMU_PERI_UART_DEBUG, CLK_NULL)
DEFINE_grpgate(vclk_gate_peri_uart_debug, &vclk_sclk_uart_debug, (&clk_PERI_GATE_CLK_PERI_UID_UART_DEBUG_IPCLKPORT_PCLK, &clk_PERI_GATE_CLK_PERI_UID_UART_DEBUG_IPCLKPORT_EXT_UCLK))
DEFINE_m1d1g1(vclk_sclk_uart_btwififm, &vclk_gate_peri_peric0, &clk_MIF_MUX_CLKCMU_PERI_UART_BTWIFIFM, &clk_MIF_DIV_CLKCMU_PERI_UART_BTWIFIFM, &clk_MIF_GATE_CLKCMU_PERI_UART_BTWIFIFM, CLK_NULL)
DEFINE_grpgate(vclk_gate_peri_uart_btwififm, &vclk_sclk_uart_btwififm, (&clk_PERI_GATE_CLK_PERI_UID_UART_BTWIFIFM_IPCLKPORT_PCLK, &clk_PERI_GATE_CLK_PERI_UID_UART_BTWIFIFM_IPCLKPORT_EXT_UCLK))
DEFINE_m1d1g1(vclk_sclk_uart_sensor, &vclk_gate_peri_peric0, &clk_MIF_MUX_CLKCMU_PERI_UART_SENSOR, &clk_MIF_DIV_CLKCMU_PERI_UART_SENSOR, &clk_MIF_GATE_CLKCMU_PERI_UART_SENSOR, CLK_NULL)
DEFINE_grpgate(vclk_gate_peri_uart_sensor, &vclk_sclk_uart_sensor, (&clk_PERI_GATE_CLK_PERI_UID_UART_SENSOR_IPCLKPORT_PCLK, &clk_PERI_GATE_CLK_PERI_UID_UART_SENSOR_IPCLKPORT_EXT_UCLK))
DEFINE_grpgate(vclk_gate_peri_tmu_g3d, VCLK_NULL, (&clk_PERI_GATE_CLK_PERI_UID_SFRIF_TMU_G3D_IPCLKPORT_PCLK, &clk_PERI_GATE_CLK_PERI_UID_TMU_G3D_IPCLKPORT_I_CLK))
DEFINE_grpgate(vclk_gate_peri_tmu_cpucl1, VCLK_NULL, (&clk_PERI_GATE_CLK_PERI_UID_SFRIF_TMU_CPUCL1_IPCLKPORT_PCLK, &clk_PERI_GATE_CLK_PERI_UID_TMU_CPUCL1_IPCLKPORT_I_CLK))
DEFINE_grpgate(vclk_gate_peri_tmu_cpucl0, VCLK_NULL, (&clk_PERI_GATE_CLK_PERI_UID_SFRIF_TMU_CPUCL0_IPCLKPORT_PCLK, &clk_PERI_GATE_CLK_PERI_UID_TMU_CPUCL0_IPCLKPORT_I_CLK))
DEFINE_m1d1g1(vclk_sclk_spi_sensorhub, &vclk_gate_peri_peric1, &clk_MIF_MUX_CLKCMU_PERI_SPI_SENSORHUB, &clk_MIF_DIV_CLKCMU_PERI_SPI_SENSORHUB, &clk_MIF_GATE_CLKCMU_PERI_SPI_SENSORHUB, CLK_NULL)
DEFINE_grpgate(vclk_gate_peri_spi_sensorhub, &vclk_sclk_spi_sensorhub, (&clk_PERI_GATE_CLK_PERI_UID_SPI_SENSORHUB_IPCLKPORT_PCLK, &clk_PERI_GATE_CLK_PERI_UID_SPI_SENSORHUB_IPCLKPORT_SPI_EXT_CLK))
DEFINE_m1d1g1(vclk_sclk_spi_voiceprocessor, &vclk_gate_peri_peric1, &clk_MIF_MUX_CLKCMU_PERI_SPI_VOICEPROCESSOR, &clk_MIF_DIV_CLKCMU_PERI_SPI_VOICEPROCESSOR, &clk_MIF_GATE_CLKCMU_PERI_SPI_VOICEPROCESSOR, CLK_NULL)
DEFINE_grpgate(vclk_gate_peri_spi_voiceprocessor, &vclk_sclk_spi_voiceprocessor, (&clk_PERI_GATE_CLK_PERI_UID_SPI_VOICEPROCESSOR_IPCLKPORT_PCLK, &clk_PERI_GATE_CLK_PERI_UID_SPI_VOICEPROCESSOR_IPCLKPORT_SPI_EXT_CLK))
DEFINE_m1d1g1(vclk_sclk_spi_ese, VCLK_NULL, &clk_MIF_MUX_CLKCMU_PERI_SPI_ESE, &clk_MIF_DIV_CLKCMU_PERI_SPI_ESE, &clk_MIF_GATE_CLKCMU_PERI_SPI_ESE, CLK_NULL)
DEFINE_grpgate(vclk_gate_peri_spi_ese, &vclk_sclk_spi_ese, (&clk_PERI_GATE_CLK_PERI_UID_SPI_ESE_IPCLKPORT_PCLK, &clk_PERI_GATE_CLK_PERI_UID_SPI_ESE_IPCLKPORT_SPI_EXT_CLK))
DEFINE_m1d1g1(vclk_sclk_spi_rearfrom, &vclk_gate_peri_peric1, &clk_MIF_MUX_CLKCMU_PERI_SPI_REARFROM, &clk_MIF_DIV_CLKCMU_PERI_SPI_REARFROM, &clk_MIF_GATE_CLKCMU_PERI_SPI_REARFROM, CLK_NULL)
DEFINE_grpgate(vclk_gate_peri_spi_rearfrom, &vclk_sclk_spi_rearfrom, (&clk_PERI_GATE_CLK_PERI_UID_SPI_REARFROM_IPCLKPORT_PCLK, &clk_PERI_GATE_CLK_PERI_UID_SPI_REARFROM_IPCLKPORT_SPI_EXT_CLK))
DEFINE_m1d1g1(vclk_sclk_spi_frontfrom, &vclk_gate_peri_peric1, &clk_MIF_MUX_CLKCMU_PERI_SPI_FRONTFROM, &clk_MIF_DIV_CLKCMU_PERI_SPI_FRONTFROM, &clk_MIF_GATE_CLKCMU_PERI_SPI_FRONTFROM, CLK_NULL)
DEFINE_grpgate(vclk_gate_peri_spi_frontfrom, &vclk_sclk_spi_frontfrom, (&clk_PERI_GATE_CLK_PERI_UID_SPI_FRONTFROM_IPCLKPORT_PCLK, &clk_PERI_GATE_CLK_PERI_UID_SPI_FRONTFROM_IPCLKPORT_SPI_EXT_CLK))
DEFINE_grpgate(vclk_gate_peri_rtc_alive, VCLK_NULL, (&clk_MIF_DIV_CLKCMU_PERI_BUS))
DEFINE_grpgate(vclk_gate_peri_rtc_top, VCLK_NULL, (&clk_MIF_DIV_CLKCMU_PERI_BUS))
DEFINE_grpgate(vclk_gate_peri_chipid, VCLK_NULL, (&clk_MIF_DIV_CLKCMU_PERI_BUS))
DEFINE_grpgate(vclk_gate_peri_otp_con_top, VCLK_NULL, (&clk_MIF_DIV_CLKCMU_PERI_BUS))
DEFINE_grpgate(vclk_gate_fsys_common, VCLK_NULL, (&clk_FSYS_GATE_CLK_FSYS_UID_PPMU_FSYS_IPCLKPORT_PCLK, &clk_FSYS_GATE_CLK_FSYS_UID_PPMU_FSYS_IPCLKPORT_ACLK))
DEFINE_grpgate(vclk_gate_fsys_sysmmu, &vclk_gate_fsys_common, (&clk_MIF_DIV_CLKCMU_FSYS_BUS))
DEFINE_grpgate(vclk_gate_fsys_ppmu, &vclk_gate_fsys_common, (&clk_MIF_DIV_CLKCMU_FSYS_BUS))
DEFINE_grpgate(vclk_gate_fsys_bts, &vclk_gate_fsys_common, (&clk_MIF_DIV_CLKCMU_FSYS_BUS))
DEFINE_grpgate(vclk_gate_fsys_common_sub2, &vclk_gate_fsys_common, (&clk_FSYS_GATE_CLK_FSYS_UID_BUSP3_FSYS_IPCLKPORT_HCLK))
DEFINE_grpgate(vclk_gate_fsys_mmc0, &vclk_gate_fsys_common_sub2, (&clk_FSYS_GATE_CLK_FSYS_UID_MMC0_IPCLKPORT_I_ACLK))
DEFINE_grpgate(vclk_gate_fsys_mmc1, &vclk_gate_fsys_common_sub2, (&clk_FSYS_GATE_CLK_FSYS_UID_MMC1_IPCLKPORT_I_ACLK))
DEFINE_grpgate(vclk_gate_fsys_mmc2, &vclk_gate_fsys_common_sub2, (&clk_FSYS_GATE_CLK_FSYS_UID_MMC2_IPCLKPORT_I_ACLK))
DEFINE_m1d1g1(vclk_sclk_mmc0, VCLK_NULL, &clk_MIF_MUX_CLKCMU_FSYS_MMC0, &clk_MIF_DIV_CLKCMU_FSYS_MMC0, &clk_MIF_GATE_CLKCMU_FSYS_MMC0, CLK_NULL)
DEFINE_grpgate(vclk_gate_fsys_sclk_mmc0, &vclk_sclk_mmc0, (&clk_MIF_DIV_CLKCMU_FSYS_MMC0))
DEFINE_m1d1g1(vclk_sclk_mmc1, VCLK_NULL, &clk_MIF_MUX_CLKCMU_FSYS_MMC1, &clk_MIF_DIV_CLKCMU_FSYS_MMC1, &clk_MIF_GATE_CLKCMU_FSYS_MMC1, CLK_NULL)
DEFINE_grpgate(vclk_gate_fsys_sclk_mmc1, &vclk_sclk_mmc1, (&clk_MIF_DIV_CLKCMU_FSYS_MMC1))
DEFINE_m1d1g1(vclk_sclk_mmc2, VCLK_NULL, &clk_MIF_MUX_CLKCMU_FSYS_MMC2, &clk_MIF_DIV_CLKCMU_FSYS_MMC2, &clk_MIF_GATE_CLKCMU_FSYS_MMC2, CLK_NULL)
DEFINE_grpgate(vclk_gate_fsys_sclk_mmc2, &vclk_sclk_mmc2, (&clk_MIF_DIV_CLKCMU_FSYS_MMC2))
DEFINE_grpgate(vclk_gate_fsys_common_sub1, &vclk_gate_fsys_common, (&clk_FSYS_GATE_CLK_FSYS_UID_UPSIZER_BUS1_FSYS_IPCLKPORT_aclk))
DEFINE_grpgate(vclk_gate_fsys_sss, &vclk_gate_fsys_common_sub1, (&clk_MIF_DIV_CLKCMU_FSYS_BUS))
DEFINE_grpgate(vclk_gate_fsys_rtic, &vclk_gate_fsys_common_sub1, (&clk_MIF_DIV_CLKCMU_FSYS_BUS))
DEFINE_grpgate(vclk_gate_fsys_pdma0, &vclk_gate_fsys_common_sub1, (&clk_FSYS_GATE_CLK_FSYS_UID_PDMA0_IPCLKPORT_ACLK_PDMA0))
DEFINE_grpgate(vclk_gate_fsys_pdma1, &vclk_gate_fsys_common_sub1, (&clk_MIF_DIV_CLKCMU_FSYS_BUS))
DEFINE_grpgate(vclk_gate_fsys_sromc, &vclk_gate_fsys_common_sub2, (&clk_FSYS_GATE_CLK_FSYS_UID_SROMC_IPCLKPORT_HCLK))
DEFINE_grpgate(vclk_gate_fsys_usb20drd, &vclk_gate_fsys_common_sub2, (&clk_FSYS_GATE_CLK_FSYS_UID_USB20DRD_IPCLKPORT_HCLK_USB20_CTRL, &clk_FSYS_GATE_CLK_FSYS_UID_USB20DRD_IPCLKPORT_ACLK_HSDRD, &clk_FSYS_GATE_CLK_FSYS_UID_USB20DRD_IPCLKPORT_HSDRD_ref_clk))
DEFINE_umux(vclk_umux_fsys_clkphy_fsys_usb20drd_phyclock_user, VCLK_NULL, &clk_FSYS_MUX_CLKPHY_FSYS_USB20DRD_PHYCLOCK_USER)
DEFINE_p1(vclk_p1_usb_pll, VCLK_NULL, &clk_USB_PLL)
DEFINE_pxmxdx(vclk_pxmxdx_disp, VCLK_NYI, {{&clk_DISPAUD_MUX_CLKCMU_DISPAUD_BUS_USER, 1, -1}, {&clk_DISPAUD_DIV_CLK_DISPAUD_APB, 1, -1}, {&clk_MIF_MUXGATE_CLKCMU_DISPAUD_BUS, 1, -1}})
DEFINE_grpgate(vclk_gate_dispaud_disp, &vclk_pxmxdx_disp, (&clk_DISPAUD_GATE_CLK_DISPAUD_UID_CLKCMU_DISPAUD_BUS_PPMU, &clk_DISPAUD_GATE_CLK_DISPAUD_UID_CLKCMU_DISPAUD_BUS_DISP, &clk_DISPAUD_GATE_CLK_DISPAUD_UID_CLKCMU_DISPAUD_BUS, &clk_DISPAUD_GATE_CLK_DISPAUD_UID_CLK_DISPAUD_APB_DISP))
DEFINE_grpgate(vclk_gate_dispaud_sysmmu, &vclk_gate_dispaud_disp, (&clk_DISPAUD_MUX_CLKCMU_DISPAUD_BUS_USER))
DEFINE_grpgate(vclk_gate_dispaud_ppmu, &vclk_gate_dispaud_disp, (&clk_DISPAUD_MUX_CLKCMU_DISPAUD_BUS_USER))
DEFINE_grpgate(vclk_gate_dispaud_bts, &vclk_gate_dispaud_disp, (&clk_DISPAUD_MUX_CLKCMU_DISPAUD_BUS_USER))
DEFINE_grpgate(vclk_gate_dispaud_decon, &vclk_gate_dispaud_disp, (&clk_DISPAUD_MUX_CLKCMU_DISPAUD_BUS_USER, &clk_DISPAUD_GATE_CLK_DISPAUD_UID_DECON_IPCLKPORT_I_VCLK, &clk_DISPAUD_GATE_CLK_DISPAUD_UID_DECON_IPCLKPORT_I_ECLK))
DEFINE_grpgate(vclk_gate_dispaud_dsim0, &vclk_gate_dispaud_disp, (&clk_DISPAUD_DIV_CLK_DISPAUD_APB))
DEFINE_grpgate(vclk_gate_dispaud_aud, &vclk_pxmxdx_disp, (&clk_DISPAUD_GATE_CLK_DISPAUD_UID_CON_DISPAUD_IPCLKPORT_I_EXT2AUD_BCK_gpio_I2S, &clk_DISPAUD_GATE_CLK_DISPAUD_UID_CON_DISPAUD_IPCLKPORT_I_AUD_I2S_BCLK_BT_IN, &clk_DISPAUD_GATE_CLK_DISPAUD_UID_CON_DISPAUD_IPCLKPORT_I_CP2AUD_BCK, &clk_DISPAUD_GATE_CLK_DISPAUD_UID_CON_DISPAUD_IPCLKPORT_I_AUD_I2S_BCLK_FM_IN))
DEFINE_grpgate(vclk_gate_dispaud_mixer, &vclk_gate_dispaud_aud, (&clk_DISPAUD_GATE_CLK_DISPAUD_UID_MIXER_AUD_IPCLKPORT_SYSCLK))
DEFINE_grpgate(vclk_gate_dispaud_mi2s_aud, &vclk_gate_dispaud_aud, (&clk_DISPAUD_GATE_CLK_DISPAUD_UID_CLK_DISPAUD_APB_AUD, &clk_DISPAUD_GATE_CLK_DISPAUD_UID_MI2S_AUD_IPCLKPORT_I2SCODCLKI))
DEFINE_grpgate(vclk_gate_dispaud_mi2s_amp, &vclk_gate_dispaud_aud, (&clk_DISPAUD_GATE_CLK_DISPAUD_UID_CLK_DISPAUD_APB_AUD_AMP, &clk_DISPAUD_GATE_CLK_DISPAUD_UID_MI2S_AMP_IPCLKPORT_I2SCODCLKI))
DEFINE_umux(vclk_umux_dispaud_clkphy_dispaud_mipiphy_txbyteclkhs_user, VCLK_NULL, &clk_DISPAUD_MUX_CLKPHY_DISPAUD_MIPIPHY_TXBYTECLKHS_USER)
DEFINE_umux(vclk_umux_dispaud_clkphy_dispaud_mipiphy_rxclkesc0_user, VCLK_NULL, &clk_DISPAUD_MUX_CLKPHY_DISPAUD_MIPIPHY_RXCLKESC0_USER)
DEFINE_m1d1g1(vclk_sclk_decon_vclk, VCLK_NULL, &clk_MIF_MUX_CLKCMU_DISPAUD_DECON_INT_VCLK, &clk_MIF_DIV_CLKCMU_DISPAUD_DECON_INT_VCLK, &clk_MIF_GATE_CLKCMU_DISPAUD_DECON_INT_VCLK, &clk_DISPAUD_MUX_CLKCMU_DISPAUD_DECON_INT_VCLK_USER)
DEFINE_m1d1g1(vclk_sclk_decon_vclk_local, VCLK_NULL, &clk_DISPAUD_MUX_CLK_DISPAUD_DECON_INT_VCLK, &clk_DISPAUD_DIV_CLK_DISPAUD_DECON_INT_VCLK, &clk_DISPAUD_GATE_CLK_DISPAUD_UID_DECON_IPCLKPORT_I_VCLK, CLK_NULL)
DEFINE_m1d1g1(vclk_sclk_decon_eclk, VCLK_NULL, &clk_MIF_MUX_CLKCMU_DISPAUD_DECON_INT_ECLK, &clk_MIF_DIV_CLKCMU_DISPAUD_DECON_INT_ECLK, &clk_MIF_GATE_CLKCMU_DISPAUD_DECON_INT_ECLK, &clk_DISPAUD_MUX_CLKCMU_DISPAUD_DECON_INT_ECLK_USER)
DEFINE_m1d1g1(vclk_sclk_decon_eclk_local, VCLK_NULL, &clk_DISPAUD_MUX_CLK_DISPAUD_DECON_INT_ECLK, &clk_DISPAUD_DIV_CLK_DISPAUD_DECON_INT_ECLK, &clk_DISPAUD_GATE_CLK_DISPAUD_UID_DECON_IPCLKPORT_I_ECLK, CLK_NULL)
DEFINE_p1(vclk_p1_disp_pll, VCLK_NULL, &clk_DISP_PLL)
DEFINE_p1(vclk_p1_aud_pll, VCLK_NULL, &clk_AUD_PLL)
DEFINE_d1(vclk_d1_dispaud_mi2s, VCLK_NULL, &clk_DISPAUD_DIV_CLK_DISPAUD_MI2S)
DEFINE_d1(vclk_d1_dispaud_mixer, VCLK_NULL, &clk_DISPAUD_DIV_CLK_DISPAUD_MIXER)
DEFINE_pxmxdx(vclk_pxmxdx_oscclk_aud, VCLK_NULL, {{&clk_PMU_DEBUG_CLKOUT_SEL08, 1, -1}, {&clk_PMU_DEBUG_CLKOUT_SEL09, 1, -1}, {&clk_PMU_DEBUG_CLKOUT_SEL10, 1, -1}, {&clk_PMU_DEBUG_CLKOUT_SEL11, 1, -1}, {&clk_PMU_DEBUG_CLKOUT_SEL12, 1, -1}, {&clk_PMU_DEBUG_CLKOUT_DISABLE, 0, 1}})
DEFINE_grpgate(vclk_gate_isp_common, VCLK_NYI, (&clk_ISP_GATE_CLK_ISP_UID_CLK_ISP_ISPD_PPMU, &clk_ISP_GATE_CLK_ISP_UID_CLK_ISP_ISPD, &clk_ISP_GATE_CLK_ISP_UID_CLK_ISP_CAM))
DEFINE_grpgate(vclk_gate_isp_sysmmu, &vclk_gate_isp_common, (&clk_ISP_MUX_CLK_ISP_ISPD))
DEFINE_grpgate(vclk_gate_isp_ppmu, &vclk_gate_isp_common, (&clk_ISP_MUX_CLK_ISP_ISPD))
DEFINE_grpgate(vclk_gate_isp_bts, &vclk_gate_isp_common, (&clk_ISP_MUX_CLK_ISP_ISPD))
DEFINE_grpgate(vclk_gate_isp_cam, &vclk_gate_isp_common, (&clk_ISP_MUX_CLK_ISP_CAM, &clk_ISP_GATE_CLK_ISP_UID_CLK_ISP_CAM_HALF))
DEFINE_grpgate(vclk_gate_isp_isp, &vclk_gate_isp_common, (&clk_ISP_MUX_CLK_ISP_ISP))
DEFINE_grpgate(vclk_gate_isp_vra, &vclk_gate_isp_common, (&clk_ISP_GATE_CLK_ISP_UID_CLK_ISP_VRA))
DEFINE_pxmxdx(vclk_pxmxdx_isp_vra, VCLK_NULL, {{&clk_ISP_MUX_CLKCMU_ISP_VRA_USER, 1, 0}, {&clk_ISP_DIV_CLK_ISP_APB, 3, -1}, {&clk_MIF_MUXGATE_CLKCMU_ISP_VRA, 1, 0}})
DEFINE_pxmxdx(vclk_pxmxdx_isp_cam, VCLK_NULL, {{&clk_ISP_MUX_CLKCMU_ISP_CAM_USER, 1, 0}, {&clk_ISP_DIV_CLK_ISP_CAM_HALF, 1, -1}, {&clk_MIF_MUXGATE_CLKCMU_ISP_CAM, 1, 0}})
DEFINE_pxmxdx(vclk_pxmxdx_isp_isp, VCLK_NULL, {{&clk_ISP_MUX_CLKCMU_ISP_ISP_USER, 1, 0}, {&clk_MIF_MUXGATE_CLKCMU_ISP_ISP, 1, 0}})
DEFINE_umux(vclk_umux_isp_clkphy_isp_s_rxbyteclkhs0_s4_user, VCLK_NULL, &clk_ISP_MUX_CLKPHY_ISP_S_RXBYTECLKHS0_S4_USER)
DEFINE_umux(vclk_umux_isp_clkphy_isp_s_rxbyteclkhs0_s4s_user, VCLK_NULL, &clk_ISP_MUX_CLKPHY_ISP_S_RXBYTECLKHS0_S4S_USER)
DEFINE_p1(vclk_p1_isp_pll, VCLK_NULL, &clk_ISP_PLL)
DEFINE_grpgate(vclk_gate_mif_adcif, VCLK_NULL, (&clk_MIF_GATE_CLK_MIF_UID_WRAP_ADC_IF_IPCLKPORT_I_OSC_SYS, &clk_MIF_GATE_CLK_MIF_UID_WRAP_ADC_IF_IPCLKPORT_PCLK_S1, &clk_MIF_GATE_CLK_MIF_UID_WRAP_ADC_IF_IPCLKPORT_PCLK_S0))
DEFINE_grpgate(vclk_gate_mif_hsi2c_mif, VCLK_NULL, (&clk_MIF_GATE_CLK_MIF_UID_ASYNCAPB_HSI2C_CP_IPCLKPORT_PCLKS, &clk_MIF_GATE_CLK_MIF_UID_ASYNCAPB_HSI2C_AP_IPCLKPORT_PCLKS, &clk_MIF_GATE_CLK_MIF_UID_MODAPIF_V1P5_MIF_CP_IPCLKPORT_PCLK_HSI2C, &clk_MIF_GATE_CLK_MIF_UID_MODAPIF_V1P5_MIF_CP_IPCLKPORT_PCLK_HSI2C_BAT_1, &clk_MIF_GATE_CLK_MIF_UID_MODAPIF_V1P5_MIF_CP_IPCLKPORT_PCLK_HSI2C_BAT_0, &clk_MIF_GATE_CLK_MIF_UID_HSI2C_MIF_IPCLKPORT_iTCLK, &clk_MIF_GATE_CLK_MIF_UID_HSI2C_MIF_IPCLKPORT_iPCLK, &clk_MIF_GATE_CLK_MIF_UID_ASYNCAPB_HSI2C_CP_IPCLKPORT_PCLKM, &clk_MIF_GATE_CLK_MIF_UID_ASYNCAPB_HSI2C_AP_IPCLKPORT_PCLKM))
DEFINE_m1d1g1(vclk_sclk_usb20drd, VCLK_NULL, &clk_MIF_MUX_CLKCMU_FSYS_USB20DRD_REFCLK, &clk_MIF_DIV_CLKCMU_FSYS_USB20DRD_REFCLK, &clk_MIF_GATE_CLKCMU_FSYS_USB20DRD_REFCLK, CLK_NULL)
DEFINE_m1d1g1(vclk_sclk_isp_sensor0, VCLK_NULL, &clk_MIF_MUX_CLKCMU_ISP_SENSOR0, &clk_MIF_DIV_CLKCMU_ISP_SENSOR0, &clk_MIF_GATE_CLKCMU_ISP_SENSOR0, CLK_NULL)
DEFINE_m1d1g1(vclk_sclk_isp_sensor1, VCLK_NULL, &clk_MIF_MUX_CLKCMU_ISP_SENSOR1, &clk_MIF_DIV_CLKCMU_ISP_SENSOR1, &clk_MIF_GATE_CLKCMU_ISP_SENSOR1, CLK_NULL)
DEFINE_m1d1g1(vclk_sclk_isp_sensor2, VCLK_NULL, &clk_MIF_MUX_CLKCMU_ISP_SENSOR2, &clk_MIF_DIV_CLKCMU_ISP_SENSOR2, &clk_MIF_GATE_CLKCMU_ISP_SENSOR2, CLK_NULL)

VCLK_TABLE({
    [10] = &vclk_gate_mfcmscl_sysmmu_mscl,
    &vclk_gate_mfcmscl_sysmmu_mfc,
    &vclk_gate_mfcmscl_ppmu,
    &vclk_gate_mfcmscl_bts,
    &vclk_gate_mfcmscl_mscl_bi,
    &vclk_gate_mfcmscl_mscl_poly,
    &vclk_gate_mfcmscl_jpeg,
    &vclk_gate_mfcmscl_mfc,
    [50] = &vclk_gate_g3d_sysmmu,
    &vclk_gate_g3d_ppmu,
    &vclk_gate_g3d_bts,
    &vclk_gate_g3d_g3d,
    [100] = &vclk_gate_peri_pwm_motor,
    &vclk_gate_peri_sclk_pwm_motor,
    &vclk_gate_peri_mct,
    [110] = &vclk_gate_peri_i2c_sensor1,
    &vclk_gate_peri_i2c_sensor2,
    &vclk_gate_peri_i2c_tsp,
    &vclk_gate_peri_i2c_touchkey,
    &vclk_gate_peri_i2c_fuelgauge,
    &vclk_gate_peri_i2c_spkamp,
    &vclk_gate_peri_i2c_nfc,
    &vclk_gate_peri_i2c_muic,
    &vclk_gate_peri_i2c_ifpmic,
    [130] = &vclk_gate_peri_hsi2c_frontcam,
    &vclk_gate_peri_hsi2c_maincam,
    &vclk_gate_peri_hsi2c_depthcam,
    &vclk_gate_peri_hsi2c_frontsensor,
    &vclk_gate_peri_hsi2c_rearaf,
    &vclk_gate_peri_hsi2c_rearsensor,
    [150] = &vclk_gate_peri_gpio_touch,
    &vclk_gate_peri_gpio_top,
    &vclk_gate_peri_gpio_nfc,
    &vclk_gate_peri_gpio_ese,
    &vclk_gate_peri_gpio_alive,
    [160] = &vclk_gate_peri_wdt_cpucl0,
    &vclk_gate_peri_wdt_cpucl1,
    [170] = &vclk_gate_peri_uart_debug,
    &vclk_gate_peri_uart_btwififm,
    &vclk_gate_peri_uart_sensor,
    [180] = &vclk_gate_peri_tmu_g3d,
    &vclk_gate_peri_tmu_cpucl1,
    &vclk_gate_peri_tmu_cpucl0,
    [190] = &vclk_gate_peri_spi_sensorhub,
    &vclk_gate_peri_spi_voiceprocessor,
    &vclk_gate_peri_spi_ese,
    &vclk_gate_peri_spi_rearfrom,
    &vclk_gate_peri_spi_frontfrom,
    [210] = &vclk_gate_peri_rtc_alive,
    &vclk_gate_peri_rtc_top,
    [220] = &vclk_gate_peri_chipid,
    &vclk_gate_peri_otp_con_top,
    [300] = &vclk_gate_fsys_sysmmu,
    &vclk_gate_fsys_ppmu,
    &vclk_gate_fsys_bts,
    [310] = &vclk_gate_fsys_mmc0,
    &vclk_gate_fsys_mmc1,
    &vclk_gate_fsys_mmc2,
    &vclk_gate_fsys_sclk_mmc0,
    &vclk_gate_fsys_sclk_mmc1,
    &vclk_gate_fsys_sclk_mmc2,
    [330] = &vclk_gate_fsys_sss,
    &vclk_gate_fsys_rtic,
    &vclk_gate_fsys_pdma0,
    &vclk_gate_fsys_pdma1,
    &vclk_gate_fsys_sromc,
    &vclk_gate_fsys_usb20drd,
    &vclk_umux_fsys_clkphy_fsys_usb20drd_phyclock_user,
    [350] = &vclk_p1_usb_pll,
    [400] = &vclk_gate_dispaud_sysmmu,
    &vclk_gate_dispaud_ppmu,
    &vclk_gate_dispaud_bts,
    [410] = &vclk_gate_dispaud_decon,
    &vclk_gate_dispaud_dsim0,
    &vclk_gate_dispaud_mixer,
    &vclk_gate_dispaud_mi2s_aud,
    &vclk_gate_dispaud_mi2s_amp,
    [433] = &vclk_umux_dispaud_clkphy_dispaud_mipiphy_txbyteclkhs_user,
    &vclk_umux_dispaud_clkphy_dispaud_mipiphy_rxclkesc0_user,
    [450] = &vclk_sclk_decon_vclk,
    &vclk_sclk_decon_vclk_local,
    &vclk_sclk_decon_eclk,
    &vclk_sclk_decon_eclk_local,
    [460] = &vclk_p1_disp_pll,
    &vclk_p1_aud_pll,
    &vclk_d1_dispaud_mi2s,
    &vclk_d1_dispaud_mixer,
    [470] = &vclk_pxmxdx_oscclk_aud,
    [500] = &vclk_gate_isp_sysmmu,
    &vclk_gate_isp_ppmu,
    &vclk_gate_isp_bts,
    [510] = &vclk_gate_isp_cam,
    &vclk_gate_isp_isp,
    &vclk_gate_isp_vra,
    &vclk_pxmxdx_isp_vra,
    &vclk_pxmxdx_isp_cam,
    &vclk_pxmxdx_isp_isp,
    [520] = &vclk_umux_isp_clkphy_isp_s_rxbyteclkhs0_s4_user,
    &vclk_umux_isp_clkphy_isp_s_rxbyteclkhs0_s4s_user,
    [530] = &vclk_p1_isp_pll,
    [600] = &vclk_gate_mif_adcif,
    &vclk_gate_mif_hsi2c_mif,
    &vclk_sclk_mmc0,
    &vclk_sclk_mmc1,
    &vclk_sclk_mmc2,
    [612] = &vclk_sclk_usb20drd,
    [620] = &vclk_sclk_uart_sensor,
    &vclk_sclk_uart_btwififm,
    &vclk_sclk_uart_debug,
    [630] = &vclk_sclk_spi_frontfrom,
    &vclk_sclk_spi_rearfrom,
    &vclk_sclk_spi_ese,
    &vclk_sclk_spi_voiceprocessor,
    &vclk_sclk_spi_sensorhub,
    [640] = &vclk_sclk_isp_sensor0,
    &vclk_sclk_isp_sensor1,
    &vclk_sclk_isp_sensor2,
})
